D0001B	địa chỉ
D0001N	địa chỉ
D0001T	địa chỉ
D0002	tỉnh
D0003	tiếp tân
D0004	nhân viên
D0005B	Miến Điện (nước Mi-an-ma)
D0005N	Miến Điện (nước Mi-an-ma)
D0005T	Miến Điện (nước Mi-an-ma)
D0006	Ma Cao
D0007	Do Thái
D0008	Ả Rập (nước Ả Rập)
D0009	phương Tây
D0010	phương Đông
D0011	Đu Bai (nước Đu Bai)
D0012	Albania (nước Albania)
D0013	người nước ngoài
D0014	nhập khẩu
D0015	Tuy Hoà
D0016	Quy Nhơn
D0017	hấp dẫn
D0018	nổi da gà
D0019B	ghen tị
D0019N	ghen tị
D0019T	ghen tị
D0020B	lung tung
D0020N	lung tung
D0020T	lung tung
D0021	hói đầu
D0022	cười nhếch mép
D0023	cười vỡ bụng
D0024B	tham ăn
D0024N	tham ăn
D0024T	tham ăn
D0026	thèm
D0027	thèm rỏ dãi
D0028	đứng đầu (hàng đầu)
D0029B	thói quen
D0029N	thói quen
D0029T	thói quen
D0030	khuyến khích
D0031B	không nghe lời
D0031N	không nghe lời
D0031T	không nghe lời
D0032	ai cho
D0033B	không cho
D0033N	không cho
D0033T	không cho
D0034	không cần
D0035B	không nên
D0035N	không nên
D0035T	không nên
D0036	bực mình
D0037	tự giác
D0038	mù chữ
D0039	vô tình
D0040B	Tết hàn thực
D0040N	Tết hàn thực
D0040T	Tết hàn thực
D0041	giỗ
D0042B	ngày Quốc tế phụ nữ 8/3
D0042N	ngày Quốc tế phụ nữ 8/3
D0042T	ngày Quốc tế phụ nữ 8/3
D0043B	ngày giải phóng thủ đô 10/10
D0043N	ngày giải phóng thủ đô 10/10
D0043T	ngày giải phóng thủ đô 10/10
D0044B	ngày Giải phóng miền Nam 30/4
D0044N	ngày Giải phóng miền Nam 30/4
D0044T	ngày Giải phóng miền Nam 30/4
D0045B	ngày Người khuyết tật Việt Nam 18/4
D0045N	ngày Người khuyết tật Việt Nam 18/4
D0045T	ngày Người khuyết tật Việt Nam 18/4
D0046B	ngày Người khuyết tật Thế giới 3/12
D0046N	ngày Người khuyết tật Thế giới 3/12
D0046T	ngày Người khuyết tật Thế giới 3/12
D0048B	lễ Halloween 31/10
D0048N	lễ Halloween 31/10
D0048T	lễ Halloween 31/10
D0049B	ngày Phụ nữ Việt Nam 20/10
D0049N	ngày Phụ nữ Việt Nam 20/10
D0049T	ngày Phụ nữ Việt Nam 20/10
D0050B	ngày thương bình liệt sĩ 27/7
D0050N	ngày thương bình liệt sĩ 27/7
D0050T	ngày thương bình liệt sĩ 27/7
D0051B	ngày giỗ tổ Hùng Vương (âm lịch 10/3)
D0051N	ngày giỗ tổ Hùng Vương (âm lịch 10/3)
D0051T	ngày giỗ tổ Hùng Vương (âm lịch 10/3)
D0052B	ngày Ngôn ngữ kí hiệu Quốc tế 23/9
D0052N	ngày Ngôn ngữ kí hiệu Quốc tế 23/9
D0052T	ngày Ngôn ngữ kí hiệu Quốc tế 23/9
D0053B	tuần lễ người Điếc thế giới
D0053N	tuần lễ người Điếc thế giới
D0053T	tuần lễ người Điếc thế giới
D0054B	ngày của Mẹ
D0054N	ngày của Mẹ
D0054T	ngày của Mẹ
D0055B	ngày của Cha
D0055N	ngày của Cha
D0055T	ngày của Cha
D0056B	ngày gia đình Việt Nam 28/6
D0056N	ngày gia đình Việt Nam 28/6
D0056T	ngày gia đình Việt Nam 28/6
D0057B	ngày thầy thuốc Việt Nam
D0057N	ngày thầy thuốc Việt Nam
D0057T	ngày thầy thuốc Việt Nam
D0058B	ngày thành lập quân đội nhân dân Việt Nam
D0058N	ngày thành lập quân đội nhân dân Việt Nam
D0058T	ngày thành lập quân đội nhân dân Việt Nam
D0059	con cá sấu
D0060B	nhầm
D0060N	nhầm
D0060T	nhầm
D0061	đồng bằng sông Cửu Long
D0062	đồng bằng sông Hồng
D0063	đồng bằng duyên hải miền Trung
D0064	buồn thảm
D0065B	mách
D0065N	mách
D0065T	mách
D0066B	vô duyên
D0066N	vô duyên
D0066T	vô duyên
D0067	ti hí mắt
D0068	kịp thời
D0069	bối rối
D0070	hú vía
D0071	suỵt
D0072B	suýt
D0072N	suýt
D0072T	suýt
D0073	cá voi
D0074	cá kiếm
D0075	đuôi cá
D0076	đuôi chuột
D0077B	bít tết (bò)
D0077N	bít tết (bò)
D0077T	bít tết (bò)
D0078	súp
D0079	súp lơ
D0080B	mỳ tôm
D0080N	mỳ tôm
D0080T	mỳ tôm
D0081B	mỳ vằn thắn
D0082B	mỳ ý
D0082N	mỳ ý
D0082T	mỳ ý
D0083	bún mắm
D0084	bún chả
D0085	bún ngan
D0086	bún ốc
D0087B	bún đậu
D0088	xôi gấc
D0089	xôi gà
D0090	cháo sườn
D0091	cơm rang
D0092	nhấn mạnh
D0093	đạo diễn
D0094	thí nghiệm
D0095	cắm trại
D0096	khả năng
D0097	kỹ năng
D0098	có … không?
D0099	cung cấp
D0100	khờ dại
D0101	cực khổ
D0102	may mắn
D0103B	từ chối
D0103N	từ chối
D0103T	từ chối
D0104	nấu nướng
D0105	xoa đầu
D0107	rực rỡ
D0108B	thiệp sinh nhật
D0108N	thiệp sinh nhật
D0108T	thiệp sinh nhật
D0109B	không quen
D0109N	không quen
D0109T	không quen
D0110	bánh tráng
D0111B	tương ớt
D0111N	tương ớt
D0111T	tương ớt
D0112	không có
D0113	không có chi
D0114	dân chủ
D0115	xử lý
D0116	đất ruộng
D0117	tinh mắt
D0118	cũng vậy/cũng thế
D0119B	đúng không?
D0119N	đúng không?
D0119T	đúng không?
D0120B	phải không?
D0120N	phải không?
D0120T	phải không?
D0121	còn bạn?
D0122B	cần không?
D0122N	cần không?
D0122T	cần không?
D0123B	nên không?
D0123N	nên không?
D0123T	nên không?
D0124	kia
D0125	nóng tính
D0126	sợ không?
D0127	căm thù
D0128B	đẹp không? (người)
D0128N	đẹp không? (người)
D0128T	đẹp không? (người)
D0129B	không đẹp
D0129N	không đẹp
D0129T	không đẹp
D0130	chúng tôi (2 người) (đại từ)
D0131	chúng tôi (3 người) (đại từ)
D0132	chúng tôi (4 người) (đại từ)
D0133	chúng tôi (5 người) (đại từ)
D0134	chúng tôi (đại từ)
D0135	các bạn (2 người)
D0136	họ (2 người) (đại từ)
D0137	họ (đại từ)
D0138	bạn yêu tôi
D0139	tôi yêu bạn ấy
D0140	bạn ấy yêu tôi
D0141	bạn yêu bạn ấy
D0142	bạn ấy yêu bạn
D0143B	anh hai, anh cả
D0143N	anh hai, anh cả
D0143T	anh hai, anh cả
D0144B	chị hai, chị cả
D0144N	chị hai, chị cả
D0144T	chị hai, chị cả
D0145	quả bầu hồ lô
D0146	một là
D0147	hai là
D0148	ba là
D0149	bốn là
D0150	năm là
D0151B	ông bà
D0151N	ông bà
D0151T	ông bà
D0152B	chị họ
D0152N	chị họ
D0152T	chị họ
D0153B	em họ
D0153N	em họ
D0153T	em họ
D0154B	cháu họ
D0154N	cháu họ
D0154T	cháu họ
D0155B	sống sót
D0155N	sống sót
D0155T	sống sót
D0156	thường xuyên
D0156B	thường xuyên
D0156N	thường xuyên
D0156T	thường xuyên
D0157B	đi dạo
D0157N	đi dạo
D0157T	đi dạo
D0158N	về (Sài Gòn)
D0159B	về 2 (Miền Bắc)
D0159T	về 2 (Miền Bắc)
D0160	về 3 (đi về)
D0161	về 4 (từ nơi khác về)
D0162	về 5 (về nhà)
D0163B	hẹn
D0163N	hẹn
D0163T	hẹn
D0164	quyến luyến
D0165B	hứa
D0165N	hứa
D0165T	hứa
D0166	cùng / với (giới từ)
D0167	lâu
D0167B	lâu
D0168B	vẫn
D0168N	vẫn
D0168T	vẫn
D0169B	mỗi ngày
D0169N	mỗi ngày
D0169T	mỗi ngày
D0170B	hàng ngày
D0170N	hàng ngày
D0170T	hàng ngày
D0171	ăn vú sữa (bằng thìa)
D0172	ăn vú sữa
D0173	hôi
D0174	trông nhà
D0175	chạy (động vật)
D0176	xe container
D0177	bay nhanh (máy bay)
D0178	chậm chạp
D0179	ngừng lại
D0180	5 > 3 (Toán học)
D0181	2 < 6 (Toán học)
D0182B	cung điện
D0182N	cung điện
D0182T	cung điện
D0183	dừng lại
D0184	một ít/ một chút
D0185	kẹt xe/tắc đường
D0186	suy ra (Toán học)
D0187	thì thầm
D0188B	hoặc
D0188N	hoặc
D0188T	hoặc
D0189B	muốn không?
D0189N	muốn không?
D0189T	muốn không?
D0190B	không muốn
D0190N	không muốn
D0190T	không muốn
D0191	sa mạc
D0192B	xem
D0192N	xem
D0192T	xem
D0193	núi cao
D0194	núi thấp
D0195B	đẹp không?
D0195N	đẹp không?
D0195T	đẹp không?
D0196	xem đã
D0197	mồ hôi nhễ nhại
D0198	không ngon
D0199	hài lòng
D0200	má hồng
D0201	ngập ngừng
D0202	nói ngập ngừng
D0203	Võ Thị Sáu
D0204	mít tinh
D0205	sụp đổ
D0206B	thiếu thốn
D0206N	thiếu thốn
D0206T	thiếu thốn
D0207	xuyên Việt
D0208	khổ công
D0209B	dám làm
D0209N	dám làm
D0209T	dám làm
D0210B	không dám
D0210N	không dám
D0210T	không dám
D0211	phiền hà
D0212	đèn ông sao
D0213B	ung thư
D0213N	ung thư
D0213T	ung thư
D0214B	phó hiệu trưởng
D0214N	phó hiệu trưởng
D0214T	phó hiệu trưởng
D0215	Ô-lim-píc
D0216	vòng nguyệt quế
D0217	hữu nghị
D0218	bắn cung tên
D0219	mũi tên
D0220	cung tên
D0221	tận số
D0222	nứt nẻ (ruộng)
D0223B	Mã Lai (nước Ma-lai-xi-a)
D0223N	Mã Lai (nước Ma-lai-xi-a)
D0223T	Mã Lai (nước Ma-lai-xi-a)
D0224	số La Mã (Toán học)
D0225	Long Vương
D0226	đàng hoàng
D0227	phân vân
D0228	lau miệng
D0229	chó cắn
D0230	mèo cào
D0231	quan hệ từ
D0232	yêu nước Việt Nam
D0233	quan (chức vụ)
D0234	đi tuần
D0235	vỗ về
D0236	hốt hoảng
D0237	chuyện nhỏ
D0238	chuyện lớn
D0239	cái gùi
D0240	hùng vĩ
D0241	bất khuất
D0242B	nhưng
D0242N	nhưng
D0242T	nhưng
D0243B	hay là (hoặc là)
D0243N	hay là (hoặc là)
D0243T	hay là (hoặc là)
D0244	Thăng Long
D0245	dãy núi Hoàng Liên Sơn
D0246	quanh năm
D0247	gấp đôi
D0248	gấp ba
D0249B	chia đôi
D0249N	chia đôi
D0249T	chia đôi
D0250B	chia ba
D0250N	chia ba
D0250T	chia ba
D0251	đi lạc (đường, rừng..)
D0252	mất (chết) (chỉ người)
D0253	đại sứ
D0254	cảnh giác
D0255	giám sát
D0256	quan sát
D0257	ăn vụng
D0258	xảy ra
D0259	dự án
D0260	đầu tư
D0261	năn nỉ
D0262	háo hức
D0263	rắc rối
D0264	tải về
D0265	nhõng nhẽo
D0266	hên/gặp may
D0267B	đen đủi
D0268N	xui xẻo
D0269	long lanh (mắt)
D0270B	lạnh lùng
D0270N	lạnh lùng
D0270T	lạnh lùng
D0271B	dỗi
D0271N	dỗi
D0271T	dỗi
D0272B	liếc nhìn
D0272N	liếc nhìn
D0272T	liếc nhìn
D0273	nhổ tóc
D0274	nhổ râu
D0275	nhổ lông mày
D0276	cắt lông mũi
D0277	nhổ răng
D0278	răng hô
D0279	răng khểnh
D0280	kháu khỉnh
D0281	mọc tóc
D0282	mọc râu
D0283	mọc ria mép
D0284	Cô vy (covid)
D0285	Cố đô Huế
D0286	cách ly
D0287	giãn cách xã hội
D0288	tương lai
D0289	ria mép
D0290	trong khoảng
D0291	trốn tìm
D0292	nhảy bao bố
D0293	nhảy lò cò
D0294	kéo co
D0295	hội thoại
D0296	lý do
D0297	lớn hơn 1 (Toán học)
D0298	lớn hơn 2 (Toán học)
D0299	2 < 5 (Toán học)
D0300	tỉnh táo
D0301	nhộn nhịp (đông người)
D0302	áo kẻ sọc
D0303	đất nước bị chia cắt (Việt Nam)
D0304	thống nhất đất nước
D0305	khoáng sản
D0306	thương mại
D0307B	công nghiệp
D0307N	công nghiệp
D0307T	công nghiệp
D0308	dân tộc Chăm
D0309	dân tộc Mường
D0310	dân tộc Khơ me
D0311	dân tộc Thái
D0312	dân tộc Mông
D0313	nhà rông
D0314	lãng phí
D0315	tiến bộ
D0316	Lượm
D0317	cứu sống
D0318	máy xúc
D0319	cảng Hải Phòng
D0320	cảng Sài Gòn
D0321	kim cương
D0322	phân biệt
D0323	không bình đẳng
D0324	đùm bọc
D0325	khởi nghiệp
D0326B	vải lụa
D0326N	vải lụa
D0326T	vải lụa
D0327	lượt đi
D0328	lượt về (trong thể thao)
D0329	rau diếp cá
D0330	rau ngò/rau mùi
D0331	thao thức
D0332	thâm quầng mắt
D0333	tự hào
D0334	quyên góp
D0335	chia rẽ
D0336	tự trọng
D0337	gian dối
D0338	ăn bám
D0339	tuyên truyền
D0340	thịnh vượng
D0341	lấm lem
D0342B	ham chơi
D0342N	ham chơi
D0342T	ham chơi
D0343	đánh cầu lông
D0344	cánh buồm
D0345	cầu Thê Húc (Hồ Gươm)
D0346B	da trắng
D0346N	da trắng
D0346T	da trắng
D0347B	da ngăm (nước da ngăm đen)
D0347N	da ngăm (nước da ngăm đen)
D0347T	da ngăm (nước da ngăm đen)
D0348	tuần trăng mật
D0349	năm tới
D0350	Hoãn
D0351	huỷ
D0352	phụ thuộc
D0353	thuộc địa
D0354	tẩy chay
D0355	đau mắt
D0356	đau bụng
D0357	đau tay
D0358	đau chân
D0359	đau tai
D0360	phẫu thuật tay
D0361	phẫu thuật chân
D0362	phẫu thuật mắt
D0363	phẫu thuật mũi
D0364	phẫu thuật cổ
D0365	phẫu thuật bụng
D0366	bệnh phong/cùi
D0367	hội chứng Đao - Down
D03671	bệnh Đao - Down
D0369	mệt mỏi
D0370	mệt không?
D0371	đói không?
D0372	cả ngày
D0373	chiên/rán (1)(2)
D0374	nướng
D0375	luộc
D0376	xào
D0377	lẩu
D0378	gỏi/nộm
D0379	nhà kho
D0380	hấp
D0381	thối
D0382	thiu
D0383	nguội
D0384	ngán
D0385	tôm hùm
D0386	cua đồng
D0387	con hàu
D0388	hải sản
D0389	vịt quay
D0390	gà nướng lu
D0391	bánh hamburger
D0392	bánh sandwich
D0393	bánh canh
D0394	miến
D0395	nước ép (cam, cà chua,..)
D0396B	nước ép trái cây
D0396N	nước ép trái cây
D0396T	nước ép trái cây
D0397	sinh tố (bơ, dâu,..)
D0398	vắt chanh
D0399	mía
D0400	chanh đá
D0401	chanh nóng
D0402	chanh muối
D0403	trà đá
D0404	trà nóng
D0405	trà sữa
D0406	Socola
D0407	Cocacola
D0408	7up
D0409	một tiết học
D0410B	một tiếng
D0410N	một tiếng
D0410T	một tiếng
D0411	chung tay
D0412	rửa chân
D0413	rửa mặt
D0414	đánh răng
D0416B	tuần này
D0416N	tuần này
D0416T	tuần này
D0417B	tuần sau
D0417N	tuần sau
D0417T	tuần sau
D0418B	tuần trước
D0418N	tuần trước
D0418T	tuần trước
D0419	cuối tuần
D0420	cuối tháng
D0421	cuối năm
D0422	mục tiêu
D0423B	sinh đôi
D0423N	sinh đôi
D0423T	sinh đôi
D0424	đôi/cặp
D0425	Đảng
D0426	mô tả
D0427	mũm mĩm
D0428	tóc dài
D0429B	tóc ngắn
D0429N	tóc ngắn
D0429T	tóc ngắn
D0430B	tổng kết/bế giảng
D0430N	tổng kết/bế giảng
D0430T	tổng kết/bế giảng
D0431	lốc xoáy
D0432B	tay chân sạch sẽ
D0432N	tay chân sạch sẽ
D0432T	tay chân sạch sẽ
D0433	nhắm mắt
D0434	sờ
D0435	cây nến
D0436	dịu dàng
D0437B	đùa
D0437N	đùa
D0437T	đùa
D0438	làm được
D0439	dòng sông chảy
D0440	ăn đủ
D0441	ăn vừa
D0442	ăn ít
D0443	đồ uống
D0444	đồ ăn
D0445	trang điểm
D0446	đau mắt đỏ
D0447	cái vợt cá
D0448	vợt cầu lông
D0449	con vượn
D0450	thắp đèn
D0451	góp tiền
D0452B	họp nhóm
D0452N	họp nhóm
D0452T	họp nhóm
D0453	nhút nhát
D0455	luộc rau
D0456	muối
D0457	nước mắm
D0458	thoăn thoắt
D0459	nghênh nghênh (đầu)
D0460	đua đòi
D0461	bình sữa (em bé)
D0462	đòi
D0463	đòi hỏi
D0464B	trẻ con/con nít
D0464N	trẻ con/con nít
D0464T	trẻ con/con nít
D0465	duy nhất
D0466	cạnh tranh
D0467	hoa hậu
D0468	cái neo
D0469	phóng viên
D0470B	nhà văn hóa
D0470N	nhà văn hóa
D0470T	nhà văn hóa
D0471	chùa Yên Tử
D0472	chõ xôi
D0473	cây cọ
D0474	khu vực cách ly
D0475	phong toả
D0477	thung lũng
D0478	địa hình
D0479	Kim Đồng
D0480	Thánh Gióng
D0481	hoa giấy
D0482	hoa dâm bụt
D0483	kết luận
D0484	internet
D0485	nhà vệ sinh
D0486	đi vệ sinh
D0488	hoa mai
D0489	a
D0490B	ă
D0490N	ă
D0490T	ă
D0491B	â
D0491N	â
D0491T	â
D0492	b
D0493	c
D0494	d
D0495	đ
D0496	e
D0497B	ê
D0497N	ê
D0497T	ê
D0498B	g
D0498N	g
D0500B	h
D0500N	h
D0500T	h
D0501	i
D0502	k
D0503	l
D0504	m
D0505	n
D0506	o
D0507B	ô
D0507N	ô
D0507T	ô
D0508N	ơ
D0509B	p
D0509N	p
D0509T	p
D0510	q
D0511	r
D0512	s
D0513B	t
D0513N	t
D0513T	t
D0514	u
D0515N	ư
D0516	v
D0517B	x
D0517N	x
D0517T	x
D0518N	y
D0519	z
D0521	f
D0522	j
D0523	w
D0524B	dấu huyền
D0524N	dấu huyền
D0524T	dấu huyền
D0525B	dấu sắc
D0525N	dấu sắc
D0525T	dấu sắc
D0526B	dấu hỏi
D0526N	dấu hỏi
D0526T	dấu hỏi
D0527B	dấu ngã
D0527N	dấu ngã
D0527T	dấu ngã
D0528	dấu nặng
D0529	0 (số không)
D0530	1
D0531	2
D0532	3
D0533	4
D0534	5
D0535B	6
D0535N	6
D0535T	6
D0536	7
D0537	8
D0538	9
D0539	10
D0540B	11
D0540N	11
D0540T	11
D0541B	12
D0541N	12
D0541T	12
D0542B	23
D0542N	23
D0542T	23
D0543N	33
D0543T	33
D0544	40
D0545	80
D0546N	90
D0547	100
D0548N	1000 (một nghìn)
D0549B	5000 (năm nghìn)
D0549T	5000 (năm nghìn)
D0550B	10 000 (mười nghìn)
D0550N	10 000 (mười nghìn)
D0550T	10 000 (mười nghìn)
D0551B	1 000 000 (một triệu)
D0551N	1 000 000 (một triệu)
D0551T	1 000 000 (một triệu)
D0552B	1 000 000 000 (một tỉ)
D0552N	1 000 000 000 (một tỉ)
D0552T	1 000 000 000 (một tỉ)
D0600	ăn cóc
W00000	ác
W00001	ác cảm
W00002	ác độc
W00003	ác mộng
W00004B	ai
W00004N	ai
W00004T	ai
W00006	An Giang
W00007	an ninh
W00009B	Anh (nước Anh)
W00009N	Anh (nước Anh)
W00009T	Anh (nước Anh)
W00010B	anh chị
W00011	anh chị em
W00012B	anh dũng
W00012N	anh dũng
W00012T	anh dũng
W00013B	anh em
W00013N	anh em
W00013T	anh em
W00014N	anh họ
W00014T	anh họ
W00015	anh hùng
W00018B	anh rể
W00018N	anh rể
W00018T	anh rể
W00019B	anh ruột
W00019N	anh ruột
W00019T	anh ruột
W00020	anh vợ
W00024	sáng
W00026	ao chuôm
W00027	ảo thuật
W00028	áo
W00029	áo ấm
W00030	áo cánh
W00032B	áo đồng phục
W00032N	áo đồng phục
W00032T	áo đồng phục
W00033	áo len
W00034	áo phao
W00035B	áo phông
W00035N	áo phông
W00035T	áo phông
W00036	áp phích
W00039	ăn diện
W00040	ăn hối lộ
W00042	ăn uống
W00043	ăn vặt
W00044	ăn xin
W00045	âm thanh
W00048	ầm ĩ
W00049	ẩm mốc
W00050	ẩm ướt
W00051	ấm áp
W00052	ấm đun nước
W00053	ấm no
W00055	ấm trà
W00057B	ân hận
W00057N	ân hận
W00057T	ân hận
W00059	ấn
W00061	ấn tượng
W00062	Âu Cơ
W00065	Ba chân bốn cẳng
W00067	Bà Nà
W00068	Bà Rịa - Vũng Tàu
W00069	triệu phú
W00070	Bạc Liêu
W00071	bài báo
W00075B	bài thơ
W00075N	bài thơ
W00075T	bài thơ
W00076	hệ bài tiết
W00079	Bãi biển Vũng Tàu
W00081	bãi cát
W00082	bãi cỏ
W00083	bãi đỗ xe (ô tô)
W00084	bãi tắm
W00086B	ban đêm
W00086N	ban đêm
W00086T	ban đêm
W00087	ban giám hiệu
W00089	ban ngày
W00091	bàn bạc
W00092	bàn chải đánh răng
W00093	bàn chân
W00094	bàn ghế
W00095	bàn là
W00096	bàn phím (máy vi tính)
W00097	bàn tay
W00098	bàn tán
W00099B	bản đồ Việt Nam
W00099N	bản đồ Việt Nam
W00099T	bản đồ Việt Nam
W00100	bản làng
W00101	bản lề
W00102	bản nhạc
W00103	bản sao (chỉ người)
W00104	bản thân
W00105	bán buôn
W00106	bán đảo
W00107B	bán hàng
W00107N	bán hàng
W00107T	bán hàng
W00108	bán kính (hình tròn)
W00110B	bạn
W00110N	bạn
W00110T	bạn
W00111B	bạn gái
W00111N	bạn gái
W00111T	bạn gái
W00112B	bạn trai
W00112N	bạn trai
W00112T	bạn trai
W00113	bảng học sinh
W00115N	bảng chia
W00115T	bảng chia
W00116	bảng chỉ dẫn
W00118	bảng chữ cái ngón tay
W00119B	bảng cộng
W00119N	bảng cộng
W00119T	bảng cộng
W00120	bảng cửu chương
W00121B	bảng đen
W00121N	bảng đen
W00121T	bảng đen
W00122	hãng máy bay
W00123B	bảng màu
W00124B	bảng nhân
W00124N	bảng nhân
W00124T	bảng nhân
W00125	hãng xe máy
W00126B	bảng trừ
W00126N	bảng trừ
W00126T	bảng trừ
W00127	bánh bột lọc
W00128	bánh cốm
W00129B	bánh cuốn
W00129N	bánh cuốn
W00129T	bánh cuốn
W00130	bánh Trung Thu
W00131	bánh đa
W00132	bánh đúc
W00133	bánh gai
W00134	bánh giầy
W00135	bánh giò
W00136	bánh gối
W00137B	bánh mì
W00137N	bánh mì
W00137T	bánh mì
W00140	bánh pizza
W00141	bánh pía
W00142	hãng tàu thuyền
W00144	bánh xe
W00145B	bao giờ?
W00145N	bao giờ?
W00145T	bao giờ?
W00146	bao la
W00147	bao nhiêu?
W00150	bao tay (dùng cho trẻ sơ sinh)
W00152	bảo đảm
W00153	bảo hiểm
W00155	lưu
W00156	bảo tàng
W00157	bảo thủ
W00158	tồn tại
W00159B	bảo vệ môi trường
W00159N	bảo vệ môi trường
W00159T	bảo vệ môi trường
W00160B	báo (con báo)
W00160N	báo (con báo)
W00160T	báo (con báo)
W00161	báo cáo
W00163	báo động
W00166	báo thù
W00170	bát
W00171	bát hương
W00172	bát ngát
W00173	làng gốm Bát Tràng
W00174	bay
W00175	xì hơi (đánh rắm)
W00175N	xì hơi (đánh rắm)
W00176	bay liệng (bay lượn)
W00179	bắc bán cầu
W00181	Bắc bộ
W00182	Bắc Giang
W00183	Bắc Kạn
W00184N	bắc nam
W00184T	bắc nam
W00185	Bắc Ninh
W00186B	bắn bi
W00186N	bắn bi
W00186T	bắn bi
W00187	bắn súng
W00188	băng bó
W00189	băng chuyền
W00190	băng dính
W00191	băng giá
W00192	băng hình
W00193	Băng-la-đét (nước Băng-la-đét)
W00194	bằng
W00195	bằng phẳng
W00196B	bắp ngô
W00196N	bắp ngô
W00196T	bắp ngô
W00197	bắt
W00198	bắt đền
W00198B	bắt đền
W00198N	bắt đền
W00199	bắt giữ
W00200	bắt nạt
W00202	bắt tay
W00203	bậc thang
W00205	bập bênh
W00206	bất động
W00207	bất hiếu
W00209	bật đèn
W00210	bật lửa
W00212	bầu trời
W00213	bẫy chim
W00214B	bẫy chuột (hành động)
W00214N	bẫy chuột (hành động)
W00214T	bẫy chuột (hành động)
W00215	bẫy chuột (dụng cụ)
W00216B	bẻ ngô
W00216N	bẻ ngô
W00216T	bẻ ngô
W00217	bé gái
W00218	bé hơn
W00219	bé loắt choắt
W00220B	bé trai
W00220N	bé trai
W00220T	bé trai
W00225	béo
W00228	bê tông
W00230	bể bơi
W00231	bể cá
W00232	bế em
W00234B	bệ hạ
W00234T	bệ hạ
W00235	bệ xí
W00236	bên cạnh
W00236N	bên cạnh
W00237	bên dưới
W00238	bên phải
W00239	bên trái
W00240	bên trên
W00241	bên trong
W00242	bến phà
W00243	bến tàu
W00244	Bến Tre
W00245	bến xe
W00246	bênh vực
W00247	bệnh thủy đậu
W00248	bệnh nhân
W00249	bệnh tật
W00252	bí ngô
W00253	bị động
W00254	bìa sách
W00255B	bìa vở
W00255N	bìa vở
W00255T	bìa vở
W00256	bịa đặt
W00258	hóa đơn
W00260	biển đông
W00261	biển hiệu
W00262N	biến đổi
W00263	biện pháp
W00265	biểu đồ
W00266	biểu đồ cột
W00267	biểu đồ hình quạt
W00270	biểu thị
W00271	biểu thức
W00273	bím tóc đuôi sam
W00274B	bình an
W00274N	bình an
W00274T	bình an
W00276	Bình Dương
W00277	Bình Định
W00279	bình minh
W00282	bình phương
W00283	Bình Phước
W00285	Bình Thuận
W00286B	bình thường
W00286N	bình thường
W00286T	bình thường
W00287	bít tất
W00288	bò
W00289	bò sát
W00290	bò tót
W00292	bỏ hoang
W00293	bỏ phiếu
W00294	bỏ qua
W00295	bỏ rơi
W00297	bó đũa
W00298	bó hoa
W00299	bóc lột
W00300	bóc vỏ
W00301	bọc sách
W00302	bom đạn
W00303	bom nguyên tử
W00304B	bón phân
W00304N	bón phân
W00304T	bón phân
W00305	bỏng
W00306	bỏng ngô
W00308	bóng bay
W00312	boong tàu
W00313	bọt biển
W00314	bọt xà phòng
W00315	bồ kết
W00316	bổ ích
W00317	bổ ngữ
W00318	bổ trợ
W00320	bố trí
W00321	bộ truyện
W00322	bốc vác
W00325	bố
W00326B	bố dượng
W00326N	bố dượng
W00326T	bố dượng
W00327	bố mẹ
W00328B	bộ đội
W00328N	bộ đội
W00328T	bộ đội
W00329	bộ sách
W00330	bốc hơi
W00331	bốc thăm
W00332	bồi bàn
W00333	bồi thường
W00334	bồn hoa
W00335	bồn rửa bát
W00336B	bông hoa
W00336N	bông hoa
W00336T	bông hoa
W00337B	bốt cảnh sát
W00337N	bốt cảnh sát
W00337T	bốt cảnh sát
W00338B	bốt điện
W00338N	bốt điện
W00338T	bốt điện
W00340	bột giặt
W00341B	bột màu
W00341N	bột màu
W00341T	bột màu
W00342N	bột ngọt
W00342T	bột ngọt
W00344	bờ biển
W00345	bờ rào
W00346	bờ ruộng
W00347	bơi
W00348	bơi lội
W00349	bơm (cái bơm)
W00350	bơm nước
W00351	bơm xe
W00352	bờm tóc
W00353	bớt
W00354	bớt đi
W00355B	Bra-xin (nước Bra-xin)
W00355N	Bra-xin (nước Bra-xin)
W00355T	Bra-xin (nước Bra-xin)
W00356B	Bru-nây (nước Bru-nây)
W00356N	Bru-nây (nước Bru-nây)
W00356T	Bru-nây (nước Bru-nây)
W00357B	cỏ
W00357N	cỏ
W00357T	cỏ
W00358	bụi đời
W00359B	bụi phấn
W00359N	bụi phấn
W00359T	bụi phấn
W00360	Bun-ga-ri (nước Bun-ga-ri)
W00361	bùn
W00362	bụng
W00363	buộc dây
W00364	buộc tóc
W00366	buổi chiều
W00367B	buổi đêm
W00367N	buổi đêm
W00367T	buổi đêm
W00368B	buổi sáng
W00368N	buổi sáng
W00368T	buổi sáng
W00369B	buổi tối
W00369N	buổi tối
W00369T	buổi tối
W00370B	buổi trưa
W00370N	buổi trưa
W00370T	buổi trưa
W00371	buôn làng
W00372	buồn nôn
W00374B	buông màn
W00374N	buông màn
W00374T	buông màn
W00377	buồng trứng
W00378	búp bê
W00380	bút
W00381	bút bi
W00382	bút dạ
W00383B	bút màu
W00383N	bút màu
W00383T	bút màu
W00384	bút máy
W00385	bữa cơm
W00386B	bức tranh
W00386N	bức tranh
W00386T	bức tranh
W00387	bức tường
W00388	bước
W00389	bước chân
W00390N	bướng bỉnh
W00390T	bướng bỉnh
W00393	bưu tá
W00395	ca
W00396	ca nô
W00397	Cà Mau
W00398B	cá kho
W00398N	cá kho
W00398T	cá kho
W00400	các bạn
W00401	cãi nhau
W00402	cái bè
W00404B	cái gương
W00404N	cái gương
W00404T	cái gương
W00405	cái nhíp
W00406	cái túi
W00407B	Cam-pu-chia (nước Cam-pu-chia)
W00407N	Cam-pu-chia (nước Cam-pu-chia)
W00407T	Cam-pu-chia (nước Cam-pu-chia)
W00409	cảnh vật
W00410	cánh tay
W00411	cạnh
W00412	cạnh bên (toán)
W00413	cạnh đáy
W00414	cạnh đối diện
W00415	cao (người)
W004151	cao (vật)
W004152	cao (nhà)
W004153	cao (núi)
W00417	Cao Bằng
W00418	cao độ
W00419	cao nguyên
W00420	cao quý
W00421	cao tầng
W00422	cao thấp
W00423	cao tốc
W00424	cát
W00425	cau có
W00426	cày
W00427	cày ruộng
W00428	cặp sách
W00429	cặp tóc
W00430	cắt nhau
W00431	cần khởi động
W00432	cấp cứu
W00433	cấp dưỡng
W00434	cất giấu
W00435	cất giữ
W00436	cất tiếng khóc
W00437	cất tiếng nói
W00438	câu cá
W00439	câu chuyện
W00440	câu đố
W00441	câu đối
W00442	câu đơn
W00443	câu ghép
W00444B	câu thơ
W00444N	câu thơ
W00444T	câu thơ
W00445	câu văn
W00446	cầu (cây cầu)
W00447	cầu cứu
W00448	cầu giao
W00449	cầu kì
W00450	cầu nguyện
W00451	cầu thủ
W00452	cầu tre
W00453	cáp treo
W00454	cầu trượt
W00455	cầu vượt
W00456B	cây ăn quả
W00456N	cây ăn quả
W00456T	cây ăn quả
W00457B	cây bàng
W00457T	cây bàng
W00459B	cây cổ thụ
W00459N	cây cổ thụ
W00459T	cây cổ thụ
W00460	cây cối
W00462	cây đa
W00464	cây gỗ
W00465	cây khế
W00469B	cây ngô
W00469N	cây ngô
W00469T	cây ngô
W00470B	cây phượng
W00470N	cây phượng
W00470T	cây phượng
W00471	cây sả
W00473	cây số
W00474B	cây thân gỗ
W00474N	cây thân gỗ
W00474T	cây thân gỗ
W00476	cây tre
W00477	cây trồng
W00478	cây xanh
W00479	cấy
W00480	cấy lúa
W00481	cha
W00482	cha mẹ
W00484B	chả cá
W00484N	chả cá
W00484T	chả cá
W00485	chai
W00486	chai nước
W00488	chàng trai
W00489	chào
W00490	chào cờ
W00492	chào mừng
W00493B	chảo
W00493N	chảo
W00493T	chảo
W00494	chát
W00495B	cháu gái
W00495N	cháu gái
W00495T	cháu gái
W00496B	cháu ngoại
W00496N	cháu ngoại
W00496T	cháu ngoại
W00497B	cháu nội
W00497N	cháu nội
W00497T	cháu nội
W00498B	cháu trai
W00498N	cháu trai
W00499	chày
W00500	cháy rừng
W00501	chạy
W00502	chạy bàn
W00503	chạy chậm
W00504	chạy nhanh
W00506	chú ( người)
W00507	chăm học
W00508B	chăm sóc sức khỏe
W00508N	chăm sóc sức khỏe
W00508T	chăm sóc sức khỏe
W00509B	chăn (cái chăn)
W00509N	chăn (cái chăn)
W00509T	chăn (cái chăn)
W00510B	chăn nuôi
W00510N	chăn nuôi
W00510T	chăn nuôi
W00512	chặn
W00513B	chặt
W00513N	chặt
W00513T	chặt
W00514	chặt chẽ
W00515	châm chọc
W00516B	châm cứu
W00516N	châm cứu
W00516T	châm cứu
W00519	chấm dứt
W00520	chấm điểm
W00522	chân dung
W00523	chân đất
W00525	chân tay
W00529	chất dẻo
W00530	chất đốt
W00531	chất độc
W00533	chất độc màu da cam
W00534	chất hữu cơ
W00536	chất lỏng
W00537	chất lượng
W00538	chất rắn
W00539	chất thải
W00540	chật chội
W00542	Châu Á Thái Bình Dương
W00544	Châu Đại Dương
W00545	chậu
W00546	che chở
W00547	che phủ
W00548	chè đỗ đỏ
W00550	chém
W00551	chen lấn
W00552	chèn ép
W00553	chén
W00554	chèo thuyền
W00555	chép bài
W00559	tạo thành
W00561	chi hội
W00562	khó tiêu
W00563	chi tiết
W00564	chỉ
W00565	chỉ dẫn
W00567	chỉ huy
W00568	chỉ khâu
W00569	đường chỉ tay
W00570B	chị
W00570N	chị
W00570T	chị
W00571B	chị chồng
W00571N	chị chồng
W00572	chị dâu
W00573	Chi-lê (nước Chi-lê)
W00575B	chia
W00575N	chia
W00575T	chia
W00577	chia cắt
W00578	chia đều
W00579	chia hết
W00580	chia phần
W00581	chia sẻ
W00582	chia tay
W00583	chìa khóa
W00584B	chiếc gối
W00584N	chiếc gối
W00584T	chiếc gối
W00585	chiếm đoạt
W00588	chiến khu
W00590	sĩ quan
W00591	chiến thắng
W00593	chiêng
W00594	chiều cao
W00595	chiều dài
W00596	chiều rộng
W00597	chiều tối
W00598	chiếu
W00598B	chiếu
W00598T	chiếu
W00599	chiếu phim
W00601	cá mập
W00602	chim bồ câu
W00603	chim chào mào
W00604	chim chích chòe
W00605	chim chóc
W00606	chim đại bàng
W00608	chim gõ kiến
W00609	chim phượng hoàng
W00610	chim sâu
W00611	chim sẻ
W00612	chim sơn ca
W00614	chim yến
W00615	chỉnh sửa
W00616	chín
W00617B	chính phủ
W00617T	chính phủ
W00618	chính quyền
W00619	chính tả
W00620B	chính xác
W00620N	chính xác
W00620T	chính xác
W00623	chó sói
W00624	chó xù
W00625	chọi gà
W00626	chọi trâu
W00628	chọn lọc
W00629	chọn lựa
W00630	chong chóng
W00632	chồi non
W00633B	chống đối
W00633N	chống đối
W00633T	chống đối
W00634	chợ Bến Thành
W00635	chợ nổi
W00636	chợ nổi Cái Bè
W00637	chợ nổi Cái Răng
W00638	luân phiên
W00638N	luân phiên
W00639B	chơi
W00639T	chơi
W00640	chớp mắt
W00641	chu vi
W00642	chủ đề
W00644	chủ động
W00645	chủ nghĩa xã hội
W00646	chủ ngữ
W00647	chủ nhiệm
W00648	nước tới chân mới nhảy
W00649B	chủ tịch
W00649N	chủ tịch
W00649T	chủ tịch
W00650	chú hề
W00651	chú rể
W00652	chú tễu
W00653	thích nghi
W00654	chú ý
W00655B	chùa
W00655N	chùa
W00655T	chùa
W00657	chùa Hương
W00658	chùa Một Cột
W00662B	chuẩn bị
W00662N	chuẩn bị
W00662T	chuẩn bị
W00663B	chúc mừng
W00663N	chúc mừng
W00663T	chúc mừng
W00664B	chúc tết
W00664N	chúc tết
W00664T	chúc tết
W00665B	chúc thọ
W00665N	chúc thọ
W00665T	chúc thọ
W00666	chục
W00667	chục nghìn
W00668	chục triệu
W00669	chui
W00671	chúi đầu
W00672	chum
W00673	chùm hoa
W00674	chùm khế
W00676	chùm nho
W00677	chùm vải
W00678	chung kết
W00679	chuỗi hạt
W00683	chuông
W00684	chuông nhà
W00685	chuồng
W00686	chuột quang
W00687	chụp ảnh
W00688	chụp đèn
W00689	chuyên biệt
W00690	chuyên cần
W00691B	chuyên gia
W00691N	chuyên gia
W00691T	chuyên gia
W00692	chuyền bóng
W00693	chim chuyền cành
W00694	chuyển đồ
W00696	chuyển đổi số đo
W00697	chuyển động
W00698	chuyển động đều
W00699	chuyển động quay
W00700	chuyển giao
W00701	chuyển hướng
W00702	chuyển vế
W00703	chuyện trò
W00705	chữ cái
W00706	chữ hoa
W00707	chữ viết
W00708B	chữa bài
W00708N	chữa bài
W00708T	chữa bài
W00709	chữa cháy
W00710	chức năng
W00712	chứng kiến
W00713	chương trình
W00714	chữ
W00716	chữa bệnh
W00717	chức vụ
W00718	chứng cớ
W00719	chứng minh
W00720	chứng nhận
W00721	co dãn
W00722	co giật
W00724	cỏ may
W00726	có ích
W00728	trọng nam khinh nữ
W00729	còi
W00730	còi xương
W00731	coi thường
W00732	máy vi tính
W00733	con ba ba
W00734B	con bê
W00734N	con bê
W00734T	con bê
W00735B	con bò
W00735N	con bò
W00735T	con bò
W00736	con bướm
W00737B	con cá
W00737N	con cá
W00737T	con cá
W00738	con chim
W00739B	con chó
W00739N	con chó
W00739T	con chó
W00740	con chồn
W00741	con chuồn chuồn
W00742B	con chuột
W00742N	con chuột
W00742T	con chuột
W00743	con chuột nhắt
W00745	con cò
W00746	con cóc
W00747B	con cọp
W00747N	con cọp
W00747T	con cọp
W00748	con công
W00749	con cua
W00750	con cú mèo
W00751	con cừu
W00752	con dâu
W00753	con dê
W00754	con dế
W00755	con đẻ
W00756	con đom đóm
W00757	con đường
W00758B	con ếch
W00758N	con ếch
W00758T	con ếch
W00759	con gà
W00760	con gái
W00761	con gấu
W00762	con ghẹ
W00763	con gián
W00764	con hoẵng
W00766	con hươu
W00767	con khỉ
W00768B	con kiến
W00768N	con kiến
W00768T	con kiến
W00770B	con lợn (con heo)
W00770N	con lợn (con heo)
W00770T	con lợn (con heo)
W00771	con lươn
W00772B	con mèo
W00772N	con mèo
W00772T	con mèo
W00773B	con muỗi
W00773N	con muỗi
W00773T	con muỗi
W00774	con mực
W00775	con nai
W00776	con ngỗng
W00777B	con người
W00777N	con người
W00777T	con người
W00778B	con ngựa
W00778N	con ngựa
W00778T	con ngựa
W00779	con nhím
W00780B	con nuôi
W00780N	con nuôi
W00780T	con nuôi
W00781N	con ong
W00781T	con ong
W00782	con ốc
W00783	con quạ
W00784	con rắn
W00785	con rối
W00786	con ruồi
W00787N	con rùa
W00788	con sâu
W00789	con sò
W00790	con sóc
W00791	con sói
W00792	con sông
W00793	con số
W00794N	con sư tử
W00794T	con sư tử
W00795	con tem
W00796	con thỏ
W00797B	con tôm
W00797N	con tôm
W00797T	con tôm
W00798	con trai (động vật)
W00799	con trăn
W00800	con trỏ
W00801	con vẹt
W00802	con vịt
W00803B	con voi
W00803N	con voi
W00803T	con voi
W00804	cong
W00805	còng (cái còng)
W00806	còng
W00807	cõng
W00809	cô dâu
W00811	cô đơn
W00812B	cô giáo
W00812N	cô giáo
W00812T	cô giáo
W00814	cổ
W00815	cổ áo
W00816	cổ chân
W00817	cổ đại
W00818	cổ họng
W00819	cổ kính
W00820B	cố gắng
W00820N	cố gắng
W00820T	cố gắng
W00822	cổ tay
W00823	cổ truyền
W00824	cổ vũ
W00825N	cổng trường
W00825T	cổng trường
W00826	cỗ
W00827	cố định
W00829	Cô-lôm-bi-a (nước Cô-lôm-bi-a)
W00830	cổ tích
W00831	cố ý (như cố tình)
W00832	cốc
W00833	cối giã
W00834	cối xay gió
W00835	cối xay lúa
W00836	cốm
W00837	côn trùng
W00838	công bằng
W00839	công chúa
W00840	công cộng
W00841	công cụ
W00843	công nhận
W00844	công sức
W00845	công tắc
W00846	công thức
W00848B	công trường
W00849	công ước
W00850B	công viên
W00850N	công viên
W00850T	công viên
W00851	công việc
W00852	Paris
W00854	cổng
W00856	cống
W00857B	cộng (Toán học)
W00857N	cộng (Toán học)
W00857T	cộng (Toán học)
W00858	Cộng Hòa Séc (nước Cộng Hòa Séc)
W00859	cốp xe
W00861	cột
W00862	cột đèn
W00863B	cột điện
W00863N	cột điện
W00863T	cột điện
W00865	cột nhà
W00866	cột sống
W00867	cơ bắp
W00868B	cơ hội
W00868N	cơ hội
W00868T	cơ hội
W00870	cơ quan
W00871	cơ sở
W00872	cơ thể
W00876	cởi áo
W00877	cơm hộp
W00878	cờ
W00880	cờ ca rô
W00881	cờ tướng
W00882	cờ vua
W00883	cởi mở
W00884	cơm
W00885B	cơm bình dân
W00885N	cơm bình dân
W00885T	cơm bình dân
W00887	Cu ba (nước Cu ba)
W00889	củ đậu
W00890	củ khoai lang
W00892	củ từ
W00893	cụ thể
W00894	cúc áo
W00895	cúi
W00899	cuống hoa
W00900	cù
W00901	củ cà rốt
W00902	củ cải trắng
W00903	củ gừng
W00904	củ hành tây
W00905	củ khoai tây
W00906	củ nghệ
W00907	củ su hào
W00908	củ tỏi
W00909	củ sả
W00910	cụ
W00911	cụ đồ
W00912	cụ già
W00914	cục tẩy
W00915	cùi chỏ
W00916	củi
W00918	cụm từ
W00922	cuộc đời
W00923	cuộc sống
W00924	cuốn
W00925	cuộn giấy vệ sinh
W00926	cuống lá
W00929	cử chỉ điệu bộ
W00930	cử động
W00931	cưa (cái cưa)
W00932	cưa
W00935B	cửa hàng
W00935N	cửa hàng
W00935T	cửa hàng
W00936	cửa khẩu
W00937	cửa kính
W00939	cửa sổ
W00941	cưỡi ngựa
W00942	yên ngựa
W00943B	cướp
W00943N	cướp
W00943T	cướp
W00944	cướp biển
W00945	cướp cờ
W00946	cướp giật
W00947	cứu
W00948	cứu hộ
W00951	dai
W00952	dài
W00953	dài hạn
W00954	dài hơn
W00955	dài nhất
W00958	dải phân cách
W00959	dàn bài
W00960	dàn nhạc
W00963	danh bạ
W00964	danh dự
W00965	danh hiệu
W00966	danh lam thắng cảnh
W00967	danh mục
W00968	danh nhân
W00969	danh sách
W00970	danh từ
W00971	danh từ riêng
W00972	dán
W00973	dao
W00975	dãy nhà
W00976	dãy núi
W00977	dãy số
W00978	dãy số liệu
W00979	dạy
W00980	dặn dò
W00981	dắt
W00982	dân ca
W00983	dân chài
W00985	gian lận
W00987	dân số
W00988B	dân tộc
W00988N	dân tộc
W00988T	dân tộc
W00989B	dân tộc thiểu số
W00989N	dân tộc thiểu số
W00989T	dân tộc thiểu số
W00990	dẫn chương trình
W00991	dẫn chứng
W00992	dập
W00993	dầu ăn
W00994	dầu gội đầu
W00995	dầu hoả
W00996	dầu khí
W00997	dầu mỏ
W00998	dấu bằng
W01001	dấu chấm
W01002	dấu chấm hỏi
W01003	dấu chấm than
W01004	dấu chia
W01005	dấu gạch ngang
W01006	dấu hai chấm
W01008	bắt buộc
W01009	dấu ngoặc đơn
W01010	dấu nhân
W01011	dấu phẩy
W01014	dây buộc tóc
W01015	dây chun
W01016B	dây điện
W01016N	dây điện
W01016T	dây điện
W01017	dây thần kinh
W01018	dây thừng
W01019	dây xích
W01021	dẻo
W01022B	dép quai hậu
W01022N	dép quai hậu
W01022T	dép quai hậu
W01024	dê con
W01025	dê mẹ
W01026	dễ chịu
W01027	dễ thương
W01028	dệt
W01029	di chuyển
W01032B	di truyền
W01032N	di truyền
W01032T	di truyền
W01033B	dịch vụ
W01033N	dịch vụ
W01033T	dịch vụ
W01034	diêm
W01035	kịch
W01036	kịch câm
W01038	diễn thuyết
W01039	diện tích
W01040	diện tích toàn phần
W01041	diện tích xung quanh
W01042	diệt chủng
W01043	xịt côn trùng
W01044	diều
W01046	Dinh Độc Lập
W01050	hăm dọa
W01051	doanh nghiệp
W01053	doanh trại
W01054	dọc
W01055	dòng chữ
W01056	dòng họ
W01058	dòng sông
W01060	dốc
W01061	dốt
W01062	du học
W01064	du thuyền
W01068	dũng cảm
W01069	dụng cụ
W01070	duyên dáng
W01071	duyệt binh
W01075B	nhà nước
W01075N	nhà nước
W01075T	nhà nước
W01076	dựng phim
W01078	đá bóng
W01079	pháo đài
W01080	đài sen
W01082B	đại diện
W01082N	đại diện
W01082T	đại diện
W01083	đại dương
W01085	đại số
W01086	đại tá
W01088	đại tướng
W01089	đại úy
W01092	đảm nhiệm
W01093	đám ma
W01094	đám mây
W01095	đan
W01096	đàn xê lô đại vĩ cầm
W01098	đàn bầu
W01099	đàn bướm
W01100	đàn ghi ta
W01101	đàn kiến
W01103	đàn tơ-rưng
W01104	đàng ngoài
W01105	đàng trong
W01106	đáng quý
W01107	đánh
W01108	đánh bắt
W01110	đánh giá
W01112	đánh răng
W01113	đánh trống
W01114	đạn
W01115	đào tạo
W01116	đảo
W01117	đảo Lý Sơn
W01118	đảo Phú Quốc
W01122	đặc biệt
W01122B	đặc biệt
W01122N	đặc biệt
W01122T	đặc biệt
W01124	đặc điểm
W01125	Đắk Lắk
W01126	đăng ký
W01127	đăng nhập
W01128	đằng sau
W01129	đằng trước
W01130	Đặng Văn Ngữ
W01131	đắt đỏ
W01132	đặt
W01134	đập
W01135	đất
W01137	đất màu mỡ
W01138	đất nặn
W01140	đất trồng cây
W01141	đầu gối
W01142	đầu hàng
W01143	đầu tàu
W01144	đầu tiên
W01145	đầu xuôi đuôi lọt
W01146	đấu tranh
W01148	đấu vật
W01149	đầy
W01150	đầy đủ
W01151	đầy tớ
W01152	đẩy
W01153B	đen láy (như đen nhánh)
W01153N	đen láy (như đen nhánh)
W01153T	đen láy (như đen nhánh)
W01154B	đèn báo giao thông
W01154N	đèn báo giao thông
W01154T	đèn báo giao thông
W01155B	đèn điện
W01155N	đèn điện
W01155T	đèn điện
W01156	đèn đỏ
W01158	đèn lồng
W01159B	đèn pin
W01159N	đèn pin
W01159T	đèn pin
W01161B	đèn vàng
W01161N	đèn vàng
W01161T	đèn vàng
W01162B	đèn xanh
W01162N	đèn xanh
W01162T	đèn xanh
W01164	đeo kính
W01165B	đèo Hải Vân
W01165N	đèo Hải Vân
W01165T	đèo Hải Vân
W01166	đèo
W01170	đẹp đẽ (như đẹp)
W01172	đẹp mê hồn
W01173	để (đặt)
W01175	đề-ca-mét (dam)
W01176	đề-ca-mét vuông (dam2)
W01177B	đề nghị
W01177N	đề nghị
W01177T	đề nghị
W01179	đề tài
W01181	đề-xi-mét (dm)
W01182	đề-xi-mét khối (dm3)
W01183	đề-xi-mét vuông (dm2)
W01184	đếm
W01185N	đền
W01186	Đền Hùng
W01188	đều đặn
W01190	đi
W01191	đi học
W01192	đĩa
W01193	đĩa DVD
W01194	địa cầu
W01196	địa đạo Củ Chi
W01197	địa điểm
W01199	địa lí
W01201	đích
W01203	điểm ở giữa đoạn thẳng
W01204	tấm lòng
W01205B	điện
W01205N	điện
W01205T	điện
W01207	Điện Biên Phủ
W01208	điện thoại
W01210	điêu khắc
W01211	quả điều
W01211N	quả điều
W01212B	điều phối
W01212N	điều phối
W01213B	điều hòa
W01213T	điều hòa
W01214	điều khiển
W01215	điều kiện
W01216	điều tra
W01217	điều trị
W01219	đinh
W01224	đỉnh
W01225	đỉnh núi
W01226	định vị
W01227	đo
W01229	đoàn cải lương
W01231	đoàn thanh niên
W01232	đoàn tụ
W01234	đoán
W01235	đoạn thẳng
W01236	đoạn thơ
W01237	đoạn văn
W01239	đọc sách
W01241	đón
W01242	đón tiếp
W01243	đóng cửa
W01244	đóng dấu
W01246	đóng góp
W01248	đô thị
W01249	đồ chơi
W01250	đồ dùng dạy học
W01251	đồ dùng học tập
W01254	độc hại
W01255	đôi dép
W01256	đổi
W01257	đối diện
W01258	đối tượng
W01259B	nhập ngũ
W01259N	nhập ngũ
W01259T	nhập ngũ
W01260	đội trưởng
W01261	đồn công an
W01262	Đông Nam
W01263	Đông Nam Á
W01264	đồng bằng
W01265	đồng hồ
W01266	Đồng Nai
W01267	Đồng Tháp Mười
W01268	đổ nước
W01272	độc lập
W01273	đôi chân
W01274	đôi tay
W01277	đổi mới
W01279	đối thoại
W01280	đối xử
W01281	đối xứng
W01283	đội thiếu niên
W01284	trống (không có gì)
W01286	Đông Dương
W01287	đông lạnh
W01288	Đông Timor (nước Đông Timor)
W01289	đồng bào
W01293	đồng lúa
W01294B	đồng phục
W01294N	đồng phục
W01294T	đồng phục
W01295	đồng ruộng
W01296	đồng tiền
W01297	rơm rớm
W01298	nhiệt độ
W01299	động cơ
W01301	tác động
W01302	động viên
W01304B	đợi
W01304N	đợi
W01304T	đợi
W01305	đơn giản
W01310	dung tích
W01313	tính
W01314	đỡ
W01315	đua ngựa
W01316	đua thuyền
W01317	đua xe máy
W01318	đũa
W01321	đun nấu
W01322	đuốc
W01323	đuôi
W01324	sa thải
W01325	đưa đón
W01326	đứng nghiêm
W01328	đựng
W01329	đường biên giới
W01330	đường bộ
W01331	đường cao
W01332	đường chéo
W01335	đường hàng không
W01336	đường hầm
W01337	đường kính
W01341	đường Nguyễn Huệ
W01343	đường sắt
W01344	đường thẳng
W01345	đường thuỷ
W01346	đường tròn
W01348B	e thẹn
W01348N	e thẹn
W01348T	e thẹn
W01349	em dâu
W01350	em gái
W01351B	em rể
W01351N	em rể
W01351T	em rể
W01352B	em trai
W01352N	em trai
W01352T	em trai
W01353	em út
W01354	email
W01357	Ê Đê
W01358	ế ẩm
W01360	Ê-ti-ô-pi-a (nước Ê-ti-ô-pi-a)
W01364B	ga tàu
W01364N	ga tàu
W01364T	ga tàu
W01365N	gà mái
W01366	gà rừng
W01367	gà tây
W01368	gà trống
W01375	gai
W01376	gãi đầu gãi tai
W01377	gan
W01378N	gan dạ
W01379	gan lì
W01381	gang tay
W01382	gánh
W01384B	gạo
W01384N	gạo
W01384T	gạo
W01385	gạo nếp
W01387	gãy chân
W01388	gãy tay
W01389	gáy
W01390	gặm cỏ
W01391	gặm xương (con chó gặm xương)
W01392	gắn bó
W01393	găng tay
W01394	gắp thức ăn
W01395	gặp gỡ
W01396	gặt lúa
W01397	gần gũi
W01398	gấp giấy
W01399	gấp quần áo
W01400	gật đầu
W01401	gật gù
W01403B	gầy (miền Nam: ốm)
W01403N	gầy (miền Nam: ốm)
W01403T	gầy (miền Nam: ốm)
W01404	gậy của người già
W01406	ghé thăm
W01407	ghép hình
W01410	ghi chép
W01411	ghi chú
W01412	ghi hình
W01413	ghi nhớ
W01415	Gia Lai
W01417T	giả bộ (giống giả vờ)
W01418	giả mạo
W01419	giả sử
W01420	giá sách
W01423	giai đoạn
W01424	giải thích
W01425	giảm
W01426	giám sát
W01427	giàn mướp
W01429	giao hàng
W01430B	giao thông
W01430N	giao thông
W01432	giã
W01433B	giá trị
W01433N	giá trị
W01433T	giá trị
W01434B	giá trị phần trăm
W01434N	giá trị phần trăm
W01434T	giá trị phần trăm
W01435	giá trị tuyệt đối
W01437	giải lao
W01438	giải quyết
W01440	giải vô địch
W01441	giám đốc
W01442	giám khảo
W01443	gian khổ
W01444	giàn khoan
W01445	giàn nho
W01447B	gián tiếp
W01447N	gián tiếp
W01447T	gián tiếp
W01450	giao hoán
W01451	giao lưu
W01452	giao thừa
W01453B	giao tiếp
W01453N	giao tiếp
W01453T	giao tiếp
W01456	giáo dục
W01458	giáo sĩ
W01459	giàu có
W01462	giấc ngủ
W01463	giẫm
W01464	giận dỗi
W01465	giận dữ
W01466	giật mình
W01467	giầy ba ta
W01468	giầy dép
W01469	giầy thể thao
W01470B	giấy
W01470N	giấy
W01470T	giấy
W01471B	giấy ăn
W01471N	giấy ăn
W01471T	giấy ăn
W01472B	giấy màu
W01472N	giấy màu
W01472T	giấy màu
W01473B	giấy nháp
W01473N	giấy nháp
W01473T	giấy nháp
W01474	giấy tờ
W01476	giẻ lau
W01477	gieo xúc xắc
W01478	giếng nước
W01479	giết
W01482	gió Lào
W01485	giỏi
W01486	giọng ca
W01487	giọng nói
W01489	giông bão
W01490	giống nhau
W01491	giơ tay
W01493	giới hạn
W01494	giới thiệu
W01497B	giúp đỡ
W01497N	giúp đỡ
W01497T	giúp đỡ
W01498	giường
W01501	góc bẹt
W01502	góc bếp
W01503	góc học tập
W01505	góc nhọn
W01506	góc tù
W01507	góc vuông
W01508	góc vườn
W01509	gói (đgt)
W01510	gói
W01511	gọi
W01512	gọn gàng
W01513	góp ý
W01514	gọt bút chì (cái)
W01515	gọt bút chì
W01516B	gỗ
W01516N	gỗ
W01516T	gỗ
W01517	gốm sứ
W01518	gợi ý
W01519	gửi
W01520	gửi quà
W01522	gửi thư
W01523	gương
W01524	gương mặt
W01525	gương mẫu
W01526	Hà Giang
W01527	Hà Lan (nước Hà Lan)
W01530	Hạ Long
W01532	hài hước
W01533	Hải Dương
W01534	hải đảo
W01536	hàm răng
W01537	hạn hán
W01539	hàng chục
W01540	hàng chục nghìn
W01541	hàng chục triệu
W01542	hàng dọc
W01543	hàng đơn vị
W01545	hàng ngang
W01546	hàng nghìn
W01547	hàng trăm
W01548	hàng trăm nghìn
W01550	hàng triệu
W01552	hàng xóm
W01554	hành động
W01556	hành lang
W01557B	hành quân
W01557N	hành quân
W01557T	hành quân
W01558	hành tinh
W01559	hành vi
W01560	hát ru
W01562	hạt
W01563	hạt cườm
W01566	hạt lạc
W01567	hạt lúa
W01568	hạt tiêu
W01569	hăng hái
W01570	hằng đẳng thức
W01571	hắt hơi
W01572	Hậu Giang
W01573	hậu quả
W01575B	héc-ta (ha)
W01576B	héc-tô-gam (hg)
W01576N	héc-tô-gam (hg)
W01576T	héc-tô-gam (hg)
W01577B	héc-tô-mét (hm)
W01577N	héc-tô-mét (hm)
W01577T	héc-tô-mét (hm)
W01578B	héc-tô-mét vuông (hm2)
W01578N	héc-tô-mét vuông (hm2)
W01578T	héc-tô-mét vuông (hm2)
W01579	héo
W01580	hét (giống la)
W01582B	hệ thống
W01582N	hệ thống
W01582T	hệ thống
W01583B	hi sinh
W01583N	hi sinh
W01583T	hi sinh
W01584B	hi vọng
W01584N	hi vọng
W01584T	hi vọng
W01587	hiện đại
W01588	hiện nay
W01591B	hiểu
W01591N	hiểu
W01591T	hiểu
W01593	hiếu thảo
W01594	hiệu thuốc
W01595	hiệu (Toán học)
W01596	hiệu cầm đồ
W01599	hình
W01600	hình bình hành
W01601	hình cầu
W01602	hình chiếu
W01603	hình dáng
W01604	hình elip
W01605	hình học
W01606	hình hộp chữ nhật
W01608	hình lập phương
W01610	hình phạt
W01612	hình thang
W01616	hình trụ
W01617	hình tứ giác
W01618	hình vẽ
W01619B	hoa
W01619N	hoa
W01619T	hoa
W01620	hoa cúc
W01621	hoa đào
W01622	hoa hồng
W01625	hoa lay ơn
W01629B	hoa sen
W01629N	hoa sen
W01629T	hoa sen
W01634	hòa bình
W01637	hòa nhập
W01638	họa sỹ
W01641	hoàn thành
W01643	hoán vị
W01645	hoàng đế
W01646	hoàng hôn
W01649	Hoàng tử
W01650	hoảng sợ
W01651B	hoạt động
W01655B	hoạt hình
W01655N	hoạt hình
W01655T	hoạt hình
W01656	học giỏi
W01658	học sinh Miền Nam
W01659	học trung bình
W01660	hỏi han
W01661	hòn đá
W01662	hót rác
W01665	học bổng
W01666	học kém
W01668	học nhóm
W01669	học phí
W01670	học tập
W01671	học trò
W01672B	hỏi
W01672N	hỏi
W01672T	hỏi
W01673B	hỏi thăm
W01674B	hòn bi (giống viên bi)
W01675B	hỏng
W01675N	hỏng
W01675T	hỏng
W01676	họng
W01677B	họp
W01677N	họp
W01677T	họp
W01678	hót
W01679	hót rác (cái hót rác)
W01681	Hồ Chí Minh
W01682	hồ dán
W01684	hồ Hoàn Kiếm
W01686	hồ nước
W01690B	hồi hộp
W01690N	hồi hộp
W01690T	hồi hộp
W01692B	hối hận
W01692N	hối hận
W01692T	hối hận
W01693	hối lộ
W01695B	hội nghị
W01696	hội thảo
W01696N	hội thảo
W01698	hội trường
W01700	hôn
W01701	hỗn số
W01702	hộp
W01703	hộp bút
W01704	hộp sữa
W01706	hơi nước
W01707B	hợp đồng
W01707T	hợp đồng
W01708	hợp lí
W01709	hợp tác
W01710	huân chương
W01711	hung ác
W01712	hung thủ
W01714	Hung-ga-ri (nước Hung-ga-ri)
W01715	Hùng Vương
W01716	hút nước
W01717	hút thuốc lá
W01718	huy hiệu
W01719	huỷ diệt
W01721B	huyện
W01721N	huyện
W01721T	huyện
W01723	Hưng Yên
W01724	hướng dẫn
W01725	muối i-ốt
W01726	I-rắc (nước I-rắc)
W01727	ích lợi
W01728B	in (ấn)
W01730	ít
W01731	ít hơn
W01732	ít nhất
W01733	Italia (nước Italia)
W01734	kẻ cắp
W01735	kèn
W01737	kẻ thù
W01738B	kém
W01738N	kém
W01738T	kém
W01739	keo kiệt
W01740	kéo
W01743B	kẹo
W01743N	kẹo
W01743T	kẹo
W01744	kẹp
W01746	kể chuyện
W01750	kết bạn
W01751	kết hợp
W01754B	kết quả
W01754N	kết quả
W01754T	kết quả
W01755	kêu
W01756	kêu gọi
W01757	khác
W01758	khách
W01759	khách mời
W01760	khách sạn
W01761	khách vip
W01764	hoang mang
W01766	khai mạc
W01767	khám bệnh
W01768	khám phá
W01770	kháng cự
W01771	kháng sinh
W01772	Khánh Hòa
W01774	khát nước
W01775	khát vọng
W01776	khắc phục
W01777	khăn mặt
W01779	khăn quàng
W01780	khăn quàng đỏ
W01783	khâm phục
W01784	khâu vá
W01785	khẩu hiệu
W01786	khẩu trang
W01787	khe cửa
W01788	khe núi
W01789	khen
W01791	khen tặng
W01792	khéo
W01793	khép cửa
W01794	khí cầu
W01796	khiêm tốn
W01800	khiêng
W01803B	khó khăn
W01803N	khó khăn
W01804	khoa học
W01806	khóa quần
W01807	khoác vai
W01808	khoan (cái khoan)
W01809	khoảng cách
W01810	khoá (cái khóa)
W01811	khóa cửa
W01813	khoác áo
W01814	khoác tay
W01815	khoan
W01816	khoang tàu
W01820	khoanh tay
W01821	khóc
W01822	khoe
W01823	khoẻ mạnh
W01824B	khỏi bệnh
W01824N	khỏi bệnh
W01824T	khỏi bệnh
W01825	khói
W01826	khóm dứa
W01827	bụi tre
W01828	khô héo
W01829	khổ thơ
W01831	cầu Long Biên
W01832	khối lượng
W01833	không gian
W01834	không thẳng hàng
W01835	khổng lồ
W01836	khố
W01840B	không hiểu
W01840N	không hiểu
W01840T	không hiểu
W01841	không khí
W01842	khổ
W01842N	khổ
W01847	khớp xương
W01849	khu rừng
W01851	khu vườn
W01852	vực sâu
W01854	khúc khuỷu
W01856	khung cửa số
W01857	khung thành
W01858	khuôn hình
W01859	khuy
W01860	khuyên tai
W01861	kì diệu
W01862	kì lạ
W01863	kí duyệt
W01864	ki-lô-gam
W01865	ki-lô-mét vuông (km2)
W01866B	kỉ niệm
W01866N	kỉ niệm
W01866T	kỉ niệm
W01867	kí hiệu
W01869	ki-lô-mét (km)
W01871	kỉ luật
W01872B	kí tên
W01872N	kí tên
W01872T	kí tên
W01876	kịch bản
W01878B	kiểm tra
W01878N	kiểm tra
W01878T	kiểm tra
W01879	kiếm (cái kiếm)
W01881	Kiên Giang
W01882	kiên quyết
W01883	kiên trì (giống: kiên nhẫn)
W01885	kiến thức
W01886	kiến trúc
W01887	kiến trúc sư
W01888	kiêu (kiêu căng, kiêu xa)
W01890	kim
W01897	kinh ngạc
W01898B	kinh nghiệm
W01898N	kinh nghiệm
W01898T	kinh nghiệm
W01900	kính
W01902	kính hiển vi
W01903	kính lão
W01904	kính lúp
W01906	kính trọng
W01908	Kon Tum
W01909	la bàn
W01910	la hét
W01911B	là gì?
W01911N	là gì?
W01911T	là gì?
W01912B	lá cây
W01912N	lá cây
W01913	lá thư
W01914	Lạc Long Quân
W01915	lạc quan
W01920B	lái tàu hỏa
W01920N	lái tàu hỏa
W01920T	lái tàu hỏa
W01924	làm bài tập
W01924N	làm bài tập
W01925B	làm quen
W01926	làm ruộng
W01928	làm việc
W01930	lang thang
W01932	làn sóng
W01939	làng xóm
W01940	Lạng Sơn
W01942	lãnh đạo
W01943	thổ dân
W01944	lao phổi
W01945B	Lào (nước Lào)
W01945N	Lào (nước Lào)
W01945T	Lào (nước Lào)
W01947	lão già
W01948	lau chùi
W01949	lau khô
W01950	lau nhà
W01951	lắc đầu
W01953	lăng Bác Hồ
W01955	lắng nghe
W01956	lặn
W01957	lặng lẽ
W01960	lắp ráp
W01961	Lâm Đồng
W01962	lẫn lộn
W01964	lầu (tầng)
W01966	lây bệnh
W01967	lây nhiễm
W01970	lấy
W01973	leo trèo
W01977	lễ bế giảng
W01977B	lễ bế giảng
W01978B	lễ hội
W01978N	lễ hội
W01978T	lễ hội
W01979B	lễ Nô-en
W01979N	lễ Nô-en
W01979T	lễ Nô-en
W01982B	lễ hội hóa trang
W01982N	lễ hội hóa trang
W01982T	lễ hội hóa trang
W01983	lễ phép
W01984	lễ vật
W01986	lên đường
W01987	lên ngôi
W01989	lên xe
W01991	lều trại
W01992	lí do
W01996B	Liên Bang Nga (nước Nga)
W01996N	Liên Bang Nga (nước Nga)
W01996T	Liên Bang Nga (nước Nga)
W01998B	liên hoan
W01998N	liên hoan
W01998T	liên hoan
W01999	liên kết
W02000B	liên lạc
W02000N	liên lạc
W02000T	liên lạc
W02001B	liên quan
W02001N	liên quan
W02001T	liên quan
W02002	liên tục
W02003	liền sau
W02004	liền trước
W02005	liệt (liệt tay chân)
W02006	liều lĩnh
W02008	liều mình
W02010	linh hồn
W02011	lĩnh hội
W02012B	lĩnh vực
W02012N	lĩnh vực
W02012T	lĩnh vực
W02016	lo sợ
W02018	lò xo
W02019	lọ hoa
W02020	lọ mực
W02021	loa
W02024B	loài vật
W02024N	loài vật
W02024T	loài vật
W02025	loạn thị
W02026	lon bia
W02027	Long An
W02032	lọng
W02035	lỗi chính tả
W02036	lỗi lầm
W02037	lối đi
W02039	lông
W02040	lông gà
W02041	lồng bàn
W02042	lồng chim
W02043	lồng tiếng
W02046	lơ lửng
W02047	lời giải
W02048	lời nói
W02049	lợi ích
W02052	lớp
W02055	lớp phó
W02057	lớp trưởng
W02059	lũ quét
W02060	lúa
W02064B	luật chơi
W02064N	luật chơi
W02064T	luật chơi
W02065	luật lệ
W02066B	lúc nào
W02066N	lúc nào
W02066T	lúc nào
W02067	lục địa
W02068	lục giác
W02070	lùi bước
W02071	lúng túng
W02073	lũy tre
W02074	luyện tập
W02075	luyện từ và câu
W02076	lửa
W02077	lược
W02078B	lười
W02078N	lười
W02078T	lười
W02079B	lười học
W02079N	lười học
W02079T	lười học
W02080	lưỡi
W02081	lưỡi câu
W02083	lưới
W02084	lượm
W02090	lương thực
W02091	lướt ván
W02096	cây thông
W02097	dự trữ
W02098	lưu ý
W02099	lựu
W02100	lựu đạn
W02104	ma
W02105	ma cà rồng
W02106	ma quỷ
W02107	ma sát
W02108	ma túy
W02109	mã vạch
W02110	má (giống: mẹ)
W02112	mạch lạc
W02113	mạch máu
W02116	mái chèo
W02117	mái hiên
W02118	mái nhà
W02119	mái tóc
W02120B	màn
W02120N	màn
W02120T	màn
W02125	mạng lưới
W02129	mạnh bạo (giống: mạnh dạn)
W02131	mạnh mẽ
W02132	màu cam
W02133B	màu đen
W02134	màu đỏ
W02137B	màu nâu
W02137N	màu nâu
W02137T	màu nâu
W02138	màu nhiệm
W02140B	màu trắng
W02140N	màu trắng
W02140T	màu trắng
W02142B	màu xanh da trời
W02142N	màu xanh da trời
W02142T	màu xanh da trời
W02143B	màu xanh lá cây
W02143N	màu xanh lá cây
W02143T	màu xanh lá cây
W02144	má
W02145	máy ảnh
W02146	máy bơm
W02147	máy chiếu
W02148B	máy in
W02148N	máy in
W02148T	máy in
W02149	máy khâu
W02150	máy quay
W02151	máy tính (laptop)
W02152	máy tính bỏ túi
W02155	mắc áo
W02156	mặc
W02159	mặc kệ
W02160	mặc quần áo
W02161	mắm
W02162	măng
W02164B	mắng
W02164N	mắng
W02164T	mắng
W02166	mặt
W02171	mặt đất
W02172	mặt vuông
W02173	mặt nạ
W02175	mặt dài
W02177	mâm cơm
W02178B	mâm ngũ quả
W02178N	mâm ngũ quả
W02178T	mâm ngũ quả
W02180	mầm cây
W02181	mầm non
W02182	mất ngủ
W02183	mất trí
W02187B	mật khẩu
W02187N	mật khẩu
W02187T	mật khẩu
W02189	mật ong
W02191	mẫu số
W02192	mẫu số bé
W02193	mẫu số chung
W02194	mẫu số lớn
W02195	mây
W02196	mấy giờ?
W02197	mét (m)
W02198	mét khối (m3)
W02199	mét vuông (m2)
W02200B	Mexico (nước Mexico)
W02200N	Mexico (nước Mexico)
W02200T	Mexico (nước Mexico)
W02202	mê say (như: say mê)
W02203	mê tín
W02204	mềm mại
W02205	mênh mông
W02208	mi-li-mét (mm)
W02209	mĩ thuật
W02211	miền Bắc Việt Nam
W02212	miền Nam Việt Nam
W02214	miêu tả
W02215	minh hoạ
W02217	khoan (khoan đã)
W02218	móc áo
W02219	Mặt trời mọc
W02220	mõm
W02221B	muốn
W02221N	muốn
W02221T	muốn
W02222	Mặt trời lặn
W02223	móng chân
W02225	móng tay
W02226	móng vuốt
W02227	mô hình
W02229	mồ côi
W02230	mồ côi cha mẹ
W02231	mồ hôi
W02234	mộc nhĩ
W02235	môi
W02236	môi trường
W02237	mỗi
W02238	môn Âm nhạc
W02239B	môn Đạo đức
W02239N	môn Đạo đức
W02239T	môn Đạo đức
W02240N	môn Giáo dục công dân
W02241	môn Giáo dục thể chất
W02242	môn Khoa học
W02243	môn Kĩ thuật
W02243B	môn Kĩ thuật
W02243N	môn Kĩ thuật
W02243T	môn Kĩ thuật
W02244B	môn Lịch sử
W02244N	môn Lịch sử
W02244T	môn Lịch sử
W02245	môn Mĩ thuật
W02246	môn Ngoại ngữ
W02247	môn Sinh học
W02248	môn Tiếng Việt
W02249	môn Tin học và Công nghệ
W02250	môn Toán
W02251	môn Tự nhiên và Xã hội
W02252	một cặp
W02253	một đôi
W02254	một mình
W02255	mơ ngủ
W02256	mơ ước
W02257	mở
W02258	mở cửa
W02259	mở đầu
W02260	mở màn
W02261	mở rộng
W02262	mớ rau
W02263	mời
W02264B	mới
W02264N	mới
W02264T	mới
W02265	mũ lưỡi trai
W02266	mua bán
W02267	mua vé
W02269	mùa đông
W02270B	mùa hè
W02270N	mùa hè
W02270T	mùa hè
W02271	mùa thu
W02272B	mùa xuân
W02272N	mùa xuân
W02272T	mùa xuân
W02273	múa rối
W02275	mũ
W02276	múa
W02277	múa lân
W02278	múa sạp
W02279	mục lục
W02280	mui xe
W02281	muộn
W02282	mưa phùn
W02283	mứt
W02284	Nam bán cầu
W02285	Nam Định
W02289	nạn nhân
W02290	náo động, náo nhiệt
W02291	náo nức
W02292B	nạp điện
W02292N	nạp điện
W02292T	nạp điện
W02294	năm ngoái
W02295	nằm
W02296	nắn nót
W02297	năng khiếu
W02298	năng lực
W02300	nặn
W02301	nặng hơn
W02302	nắp
W02303	nấm
W02304	nẻ
W02305	nén
W02311	nét mặt
W02321	nếm
W02322	nền nhà
W02323	nến
W02324	ngà voi
W02325	ngã ba
W02327B	ngày khai trường
W02328N	ngày Nhà giáo Việt nam
W02328T	ngày Nhà giáo Việt nam
W02329B	ngày tháng
W02329N	ngày tháng
W02329T	ngày tháng
W02330	ngã
W02332	ngạc nhiên
W02333	ngành nghề
W02334	ngày đêm
W02336B	ngày nay
W02336N	ngày nay
W02336T	ngày nay
W02337B	ngày Quốc tế Lao động
W02337N	ngày Quốc tế Lao động
W02337T	ngày Quốc tế Lao động
W02338B	ngày sinh
W02338N	ngày sinh
W02338T	ngày sinh
W02339	ngày xưa
W02340	ngăn cản
W02342	ngăn chặn
W02343	ngắn
W02344	ngắn nhất
W02345B	ngắt hoa
W02345N	ngắt hoa
W02346	ngâm hạt
W02348	ngân hàng
W02349	ngẩng đầu
W02350	ngập lụt
W02352	ngây thơ
W02353	nghe
W02354B	nghé
W02354N	nghé
W02354T	nghé
W02355	nghẹn ngào
W02356	nghệ sĩ
W02357B	nghệ thuật
W02357N	nghệ thuật
W02357T	nghệ thuật
W02359B	nghi ngờ
W02359N	nghi ngờ
W02359T	nghi ngờ
W02360B	nghỉ hè
W02360N	nghỉ hè
W02360T	nghỉ hè
W02361B	nghỉ học
W02361N	nghỉ học
W02361T	nghỉ học
W02362	nghỉ hưu
W02363	nghỉ mát
W02364	nghỉ ngơi
W02366	nghĩa đen
W02367	nghiên cứu
W02368	nghĩ
W02369	nghị lực
W02370	nghĩa bóng
W02371	nghĩa trang
W02373B	nghiêm khắc
W02373N	nghiêm khắc
W02373T	nghiêm khắc
W02374	nghiêm túc
W02375	nghiến răng
W02378	ngoại hình
W02380	xâm hại tình dục
W02381	ngoan ngoãn
W02382	ngoắc tay
W02383	ngoặc đơn
W02384	ngoặc kép
W02385	ngoằn ngoèo
W02387	ngói
W02388	ngon giấc
W02390	ngon miệng
W02391	ngõ
W02392	ngón chân
W02393	ngón tay
W02394B	ngọn cây
W02394N	ngọn cây
W02394T	ngọn cây
W02395N	ngô
W02395T	ngô
W02398	ngộ độc
W02399	ngộ nghĩnh
W02400B	ngồi
W02400N	ngồi
W02400T	ngồi
W02401	ngôn ngữ
W02402B	ngũ quả
W02402N	ngũ quả
W02402T	ngũ quả
W02403	nguệch ngoạc
W02404	nguồn gốc
W02405B	nguy hiểm
W02405N	nguy hiểm
W02405T	nguy hiểm
W02407B	nguyên nhân
W02418	nguyện vọng
W02421	ngữ điệu
W02422	ngước nhìn
W02423	ngược đãi
W02424	ngược lại
W02426	người bán hàng
W02428	người gửi
W02430B	người lái xe (ô tô)
W02430N	người lái xe (ô tô)
W02430T	người lái xe (ô tô)
W02431	người lạ
W02432	người máy
W02433	người nhận
W02435B	người quen
W02435N	người quen
W02435T	người quen
W02437B	người xấu
W02437N	người xấu
W02437T	người xấu
W02438B	người xưa
W02438N	người xưa
W02438T	người xưa
W02439B	người yêu
W02439N	người yêu
W02439T	người yêu
W02440	ngưỡng mộ
W02441	nhà bác học
W02443	nhà cửa
W02447	nhà sàn
W02448	nhà tầng
W02449	nhà thơ
W02450	nhà thờ
W02451	nhà thờ Đức Bà
W02453	nhà toán học
W02455B	nhà trường
W02455N	nhà trường
W02455T	nhà trường
W02456	nhà tù
W02461B	nhãn vở
W02461N	nhãn vở
W02461T	nhãn vở
W02462	nhanh nhẹn
W02463	nhào lộn
W02464	nhát gan
W02465	nhảy cao
W02466	nhảy dù
W02467	nhảy múa
W02468	nháy mắt
W02469	nhạy cảm
W02470	nhắc nhở
W02471	nhăn mặt
W02472	nhặt rau
W02473B	nhân (Toán học)
W02473N	nhân (Toán học)
W02473T	nhân (Toán học)
W02476	nhân cách hoá
W02477	nhân chứng
W02478	nhân dân
W02479B	nhân hậu
W02479N	nhân hậu
W02479T	nhân hậu
W02481	nhân vật
W02483	nhận hàng
W02485	nhận
W02486	nhận thức
W02487	nhận xét
W02488	nhấp nháy
W02490B	nhập trường
W02490N	nhập trường
W02490T	nhập trường
W02492B	Nhật (nước Nhật)
W02492N	Nhật (nước Nhật)
W02492T	Nhật (nước Nhật)
W02493	nhẹ hơn
W02494	nhẹ nhàng
W02495	nhi đồng
W02497B	nhiệt kế
W02497N	nhiệt kế
W02497T	nhiệt kế
W02498	nhiều hơn
W02499	nhìn
W02500	nhỏ/ nhỏ bé
W02501	nhỏ hơn
W02502	nhỏ tuổi
W02503	nhóm
W02504	nhọn
W02505	nhọn hoắt
W02506	nhổ củ cải
W02508	nhu cầu
W02512	nhụy hoa
W02513	như hình với bóng
W02514	nhược điểm
W02515	nhường nhịn
W02517	niềm vui
W02518	Ninh Bình
W02519	Ninh Thuận
W02520B	no
W02520N	no
W02520T	no
W02521	nỏ
W02522	nóc nhà
W02523	nói chuyện
W02524	nói dối
W02526	nói leo
W02527	nón
W02528	nô lệ
W02529	nổ lốp xe
W02530	nổ mìn
W02531	nổ súng
W02532	nồi
W02534	nồi cơm điện
W02535	nổi bật
W02536	nổi dậy
W02537	nổi giận
W02538	nổi nóng
W02539	nối tiếp
W02540B	nội dung
W02540N	nội dung
W02540T	nội dung
W02541	nội quy
W02542	nội tiếp
W02544	nông nghiệp
W02546	nông thôn
W02548	nốt ruồi
W02549	nơ
W02550	nơi chốn
W02551	núi lửa
W02554	nước mắt
W02555B	nước Việt nam
W02555N	nước Việt nam
W02555T	nước Việt nam
W02556	Oa-sinh-tơn
W02557	óc
W02558	ô ăn quan
W02559	ô nhiễm
W02561	ô tô
W02564	ốc vít
W02565	ôm
W02567	ốm đau
W02569	ôn luyện
W02570	ôn tập
W02571	ổn định
W02572	ông già
W02575B	ông ngoại
W02575N	ông ngoại
W02575T	ông ngoại
W02576B	ông nội
W02576N	ông nội
W02576T	ông nội
W02577	ống nghe
W02578	ống nhòm
W02579	ống nước
W02580B	ở ngoài
W02580N	ở ngoài
W02580T	ở ngoài
W02581	ở trong
W02582	Pa-ki-xtan (nước Pa-ki-xtan)
W02583	Pê-ru (nước Pê-ru)
W02584	pha cà phê
W02585	pha chế
W02586	pha lê
W02587	phà
W02589B	phá
W02589N	phá
W02589T	phá
W02597B	phản bội
W02597N	phản bội
W02597T	phản bội
W02598	phản động
W02600	phản xạ
W02602	phao
W02605	pháo hoa
W02606	pháo sáng
W02608	phát biểu
W02609	phát động
W02610	phát hiện
W02614	phân công
W02615	phân loại
W02616	phân số
W02617	hai phân số bằng nhau
W02618	phân số thập phân
W02619	phân số tối giản
W02620	phân tích
W02626	giữ nguyên
W02628	phần trăm
W02630B	phấn (viết bảng)
W02630N	phấn (viết bảng)
W02630T	phấn (viết bảng)
W02631	phấn đấu
W02634	phấn trang điểm
W02635	phấp phới
W02637	phật (tượng)
W02640	phép mầu
W02641	phép tính
W02643	phê bình
W02644	phễu
W02645	phi công
W02647	phi ngựa
W02648	phi tiêu
W02649	phích nước
W02651B	phiên dịch
W02651N	phiên dịch
W02651T	phiên dịch
W02654B	Phi-líp-pin (nước Phi-líp-pin)
W02654N	Phi-líp-pin (nước Phi-líp-pin)
W02654T	Phi-líp-pin (nước Phi-líp-pin)
W02656B	phim hoạt hình
W02656N	phim hoạt hình
W02656T	phim hoạt hình
W02657	phim tài liệu
W02658B	phim truyện
W02658N	phim truyện
W02658T	phim truyện
W02660	phong bì
W02661	phong cách
W02662	phong kiến
W02665	phong trào
W02666	phong tục
W02667	phòng âm nhạc
W02668	phòng bệnh
W02669	phòng chống
W02670	phòng chức năng
W02672	phòng đa năng
W02675	phòng học tin học
W02677	phòng máy tính
W02678	phòng mĩ thuật
W02679	phòng thí nghiệm
W02680	phòng thư viện
W02682	phòng y tế
W02685	phô tô
W02686	phổ biến
W02689	phố
W02690	phố cổ
W02691	phố cổ Hội an
W02693	phổi
W02696B	phở
W02696N	phở
W02696T	phở
W02697B	phở cuốn
W02697N	phở cuốn
W02697T	phở cuốn
W02698	phơi quần áo
W02699	phù hợp
W02701	phủ nhận
W02702	Phú Thọ
W02704	phụ huynh
W02707	phục hồi
W02709	phục vụ
W02710	phun nước
W02712	phức tạp
W02713	phương hướng
W02714	phương pháp
W02715	phương tiện
W02716B	phương tiện giao thông
W02716N	phương tiện giao thông
W02716T	phương tiện giao thông
W02718	pi-a-nô (dương cầm)
W02721	quả
W02722	quả bầu
W02724B	quả bưởi
W02724N	quả bưởi
W02724T	quả bưởi
W02725	quả cam
W02728	quả chanh
W02729	quả chôm chôm
W02730	quả chuối
W02731B	quả dưa hấu
W02731N	quả dưa hấu
W02731T	quả dưa hấu
W02732B	quả dừa
W02732N	quả dừa
W02732T	quả dừa
W02733B	quả dừa xiêm
W02733N	quả dừa xiêm
W02733T	quả dừa xiêm
W02734	quả đất
W02735	quả địa cầu
W02737B	quả đu đủ
W02737N	quả đu đủ
W02737T	quả đu đủ
W02739	quả gấc
W02740	quả hồng
W02741	quả hồng xiêm
W02742B	quả khế
W02742N	quả khế
W02742T	quả khế
W02744	quả lê
W02745	quả mít
W02746	quả mướp
W02747	quả na
W02748B	quả nhãn
W02748N	quả nhãn
W02748T	quả nhãn
W02749	quả nho
W02750	quả ổi
W02751	quả ớt
W02752	quả quất
W02753	quả quýt
W02754B	quả roi
W02754N	quả roi
W02754T	quả roi
W02755	quả sầu riêng
W02756	quả su su
W02757B	quả táo
W02757N	quả táo
W02758	quả thanh long
W02759	quả vải
W02760	quả xoài
W02761	quá cảnh
W02762	quan điểm
W02763	quan hệ
W02765	quan tâm
W02766	quan trọng
W02769	quang hợp
W02771	quàng khăn
W02772	Quảng Bình
W02773	quảng cáo
W02774	Quảng Ngãi
W02775	Quảng Ninh
W02776	quát mắng
W02777	quạt cây
W02778	quay cóp
W02779	quay phim
W02780	quà
W02781	Quảng Nam
W02782	Quảng Trị
W02783	quạt treo tường
W02784B	quân đội
W02784N	quân đội
W02786	quần âu
W02787B	quần bò
W02787N	quần bò
W02787T	quần bò
W02788	quần đùi
W02789	quần yếm
W02790B	quận
W02790N	quận
W02790T	quận
W02794	quét dọn
W02795	quét nhà
W02797B	quê
W02797N	quê
W02797T	quê
W02798	quên
W02799	quốc ca
W02800	quốc gia
W02801	quốc hội
W02802	quốc khánh
W02804	đề phòng
W02805	quốc tế
W02806	Trần Quốc Toản
W02807	Quốc Tử Giám
W02808	quy định
W02809	quy đồng mẫu số
W02810	quy nạp
W02811	quy tắc
W02812	quý giá
W02813B	quyền lợi
W02813N	quyền lợi
W02813T	quyền lợi
W02814B	quyết định
W02814N	quyết định
W02814T	quyết định
W02815	quỳ
W02816	quý hiếm
W02818B	quyển vở
W02818N	quyển vở
W02818T	quyển vở
W02820B	quyết tâm
W02820N	quyết tâm
W02820T	quyết tâm
W02823	ra lệnh
W02825B	ra ngoài
W02825N	ra ngoài
W02825T	ra ngoài
W02828	rách
W02831	rạch
W02832	rào chắn
W02833	rạp chiếu phim
W02835	rau
W02836	rau bắp cải
W02837	rau cải
W02839	rau cải thảo
W02841	rau dền
W02844	rau mùng tơi
W02845	rau ngót
W02847B	rằm trung thu
W02847N	rằm trung thu
W02847T	rằm trung thu
W02848	răng
W02849	răng cưa
W02851	râu
W02852	rẽ phải
W02853	rèn sắt
W02854	rèn luyện
W02855	reo hò
W02856	rễ cây
W02857	rễ chùm
W02858	rễ cọc
W02859	rế
W02860	riêng biệt
W02861	riêng tư
W02862	rình mò
W02863	rìu
W02864B	rõ ràng
W02864T	rõ ràng
W02865N	róc rách
W02866	rón rén
W02867	rong biển
W02868B	rong chơi
W02868N	rong chơi
W02868T	rong chơi
W02870	rổ
W02872	rộng lớn
W02873	rộng rãi
W02874	rơi
W02875	rơm
W02876	ru ngủ
W02877	rụng tóc (đt)
W02878	ruộng bậc thang
W02879	ruột già
W02880	ruột non
W02883	rút gọn
W02884	rút gọn phân số
W02885	rửa bát
W02886	rửa chân
W02887	rửa mặt
W02888	rửa tay
W02892	rừng núi
W02893	rừng rậm
W02894	rừng thưa
W02895	rước đèn
W02897B	rưỡi
W02897N	rưỡi
W02897T	rưỡi
W02898B	rượu
W02898N	rượu
W02898T	rượu
W02900	sách
W02901	sách giáo khoa
W02902	sách toán
W02903	san hô
W02906	san sẻ
W02912	sản xuất
W02915	sáng chói
W02916	sáng kiến
W02918	sáng tạo
W02919N	sao
W02919T	sao
W02921	sao chép
W02922	đỏ thắm
W02923	sáo
W02925	Sapa
W02926	sau
W02927	say sưa
W02929	săn bắn
W02931B	sắp xếp
W02931N	sắp xếp
W02931T	sắp xếp
W02932B	sắt
W02932N	sắt
W02932T	sắt
W02934	sấm chớp
W02935	sấm sét
W02936B	sân chơi
W02936T	sân chơi
W02937	sân khấu
W02938	sân nhà
W02939	sân thượng
W02940B	sân trường
W02940N	sân trường
W02940T	sân trường
W02941	sân vận động
W02943	sâu
W02944	sâu bọ
W02945	sâu răng
W02946	sâu thẳm
W02947B	sĩ diện
W02947N	sĩ diện
W02948	siêng năng
W02949	siêu âm
W02951	siêu thị
W02952	siêu tốc
W02953B	sinh đẻ
W02953N	sinh đẻ
W02953T	sinh đẻ
W02954	sinh động
W02955	sinh hoạt
W02956B	sinh sản
W02956N	sinh sản
W02956T	sinh sản
W02957	sinh sống
W02958	sinh tố
W02960	sinh vật
W02961	Sóc Trăng
W02962	soi
W02964	son môi
W02965	song song
W02967	sóng biển
W02968	sóng thần
W02970	sổ đầu bài
W02972	sổ điểm danh
W02974	sổ tay
W02975	số bé
W02979	số chẵn
W02981	số chín
W02987	số đo
W02989	số lẻ
W02990	số liền sau
W02991	số liền trước
W02992	số lớn
W02996	số thập phân
W03005	sông Hồng
W03008	sốt
W03010N	sơ đồ
W03010T	sơ đồ
W03011B	sơ mi
W03011N	sơ mi
W03011T	sơ mi
W03014	sợi
W03015	sợi chỉ
W03016	sợi dây
W03017	sợi len
W03018	sơn
W03021	súc miệng
W03023	sum họp
W03024	suối
W03025N	suy nghĩ
W03025T	suy nghĩ
W03031	sự thật
W03034	sửa chữa
W03036B	sữa bò
W03036N	sữa bò
W03036T	sữa bò
W03037B	sữa bột
W03037N	sữa bột
W03037T	sữa bột
W03038B	sữa dê
W03038N	sữa dê
W03038T	sữa dê
W03039	sữa đặc
W03040B	sữa hộp
W03040N	sữa hộp
W03040T	sữa hộp
W03041	sữa rửa mặt
W03042B	sữa
W03042N	sữa
W03042T	sữa
W03043	sức khỏe
W03046	sừng
W03047	sừng bò
W03048	sừng trâu
W03050	sương gió
W03051	sườn
W03054	tác dụng
W03055	tác động
W03056	tác giả
W03058	tác phẩm
W03059	tách
W03060	tách lớp
W03061	tai
W03062	tai nạn
W03063	tài giỏi
W03064	tài năng
W03067	tài trợ
W03070	tái phát
W03071B	tái phạm
W03071N	tái phạm
W03071T	tái phạm
W03073	đảo Trường Sa
W03074	tam giác
W03075	tạm biệt
W03076	đảo Hoàng Sa
W03077	tán thành
W03081	tạo dáng
W03084	tát
W03085B	tàu hoả
W03085N	tàu hoả
W03085T	tàu hoả
W03086	tàu ngầm
W03087	tàu thuyền
W03088	tàu thủy
W03089	taxi
W03090	tay
W03095	tay phải
W03097	tay trái
W03099	tặc lưỡi
W03100	tăm
W03103	tâm thần
W03105B	tấm vải
W03105N	tấm vải
W03105T	tấm vải
W03107	tấn công
W03110	tập hợp (Toán học)
W03111	tập hợp rỗng
W03112	tập làm văn
W03115N	tập thể
W03116B	tập thể dục
W03116T	tập thể dục
W03117	tập trung
W03118	tập viết
W03121	Tây Bắc
W03123	Tây Nguyên
W03124	Tây Ninh
W03129N	tên là gì?
W03129T	tên là gì?
W03130N	tên riêng
W03131N	Tết Âm
W03131T	Tết Âm
W03132N	Tết Dương
W03132T	Tết Dương
W03133N	Tết Thiếu nhi
W03134B	Tết Trung thu
W03134N	Tết Trung thu
W03134T	Tết Trung thu
W03135	tha
W03136	tha mồi
W03138B	tha thứ
W03138N	tha thứ
W03138T	tha thứ
W03139	thả diều
W03140	thả mồi
W03141	thác
W03148B	thái độ
W03148N	thái độ
W03148T	thái độ
W03150	Thái Nguyên
W03153B	tham dự
W03153N	tham dự
W03153T	tham dự
W03154	tham khảo
W03155	tham lam
W03156B	tham quan
W03156N	tham quan
W03156T	tham quan
W03160	thám tử
W03163	thản nhiên
W03164	thán phục
W03165	cầu thang
W03167B	tháng
W03167N	tháng
W03167T	tháng
W03168	Thanh Hóa
W03171	thanh niên
W03172	đường ray xe lửa
W03173	thành công
W03175	thành lập
W03175B	thành lập
W03175N	thành lập
W03175T	thành lập
W03180	thành thạo
W03181	thành thị
W03185	thành viên
W03186	thánh địa Mỹ Sơn
W03191	tháo gỡ
W03192	tháp
W03193	tháp Rùa
W03196	thắc mắc
W03197B	thăm hỏi
W03197N	thăm hỏi
W03197T	thăm hỏi
W03199	thăng bằng
W03201	thẳng hàng (Toán học)
W03202	thẳng tắp
W03203	thắng lợi
W03204B	thân cây
W03204N	thân cây
W03204T	thân cây
W03205	thân hình
W03207	thân thiết
W03208	thân thiện
W03210	thần chết
W03211N	thần kinh
W03214	thận
W03215	thấp hơn
W03216	thấp nhất
W03219	thập thò
W03221	thật thà
W03222B	thầy cô
W03222N	thầy cô
W03222T	thầy cô
W03223	thầy cúng
W03224B	thầy giáo
W03224N	thầy giáo
W03224T	thầy giáo
W03228	theo dõi
W03229	theo đuổi
W03230	thẻ
W03232	thét
W03233	thề
W03237	thế hệ
W03238	tri kỉ
W03239B	thế nào?
W03239N	thế nào?
W03239T	thế nào?
W03240	thêm
W03241	thềm
W03242B	thêu
W03242N	thêu
W03243B	thi cử
W03243N	thi cử
W03243T	thi cử
W03247	thị giác
W03248	thị lực
W03251B	thìa
W03251N	thìa
W03251T	thìa
W03252B	thích thú
W03252N	thích thú
W03252T	thích thú
W03254	thiên đình
W03256	thiên nhiên
W03258	thiên thần
W03262	thiếp đi
W03263	thiếp mời
W03265B	thiết kế
W03265N	thiết kế
W03265T	thiết kế
W03268	thiệt thòi
W03269	thiếu nhi
W03270	thiếu niên
W03272	thím
W03276	thoát hiểm
W03278	thóc (gạo)
W03281	thổi
W03282	thổi bóng
W03283	thổi kèn
W03285	thông báo
W03286	thông cảm
W03288B	thông minh
W03288N	thông minh
W03288T	thông minh
W03289	thông qua
W03291	thông thường
W03292B	thông tin
W03292N	thông tin
W03292T	thông tin
W03294	thống nhất
W03297	tuổi thơ ấu
W03299	thờ cúng
W03300	thở dài
W03303	thời gian biểu
W03305	thở
W03306	thợ kim hoàn
W03308	thợ rèn
W03309	thợ thêu
W03314B	thơm
W03314N	thơm
W03314T	thơm
W03316	thu mua
W03317	thu nhỏ
W03318	thu thập
W03319	thù lao
W03320B	thủ công
W03320N	thủ công
W03320T	thủ công
W03321B	thủ tướng
W03321N	thủ tướng
W03321T	thủ tướng
W03323B	thú dữ
W03323N	thú dữ
W03323T	thú dữ
W03324B	thú y
W03324N	thú y
W03324T	thú y
W03326	thuận lợi
W03327B	ngữ pháp
W03327N	ngữ pháp
W03327T	ngữ pháp
W03328	thúc đẩy
W03329B	thuê
W03329N	thuê
W03329T	thuê
W03330	thùng
W03331	thủng
W03333	thuốc bắc
W03334	thuốc bổ
W03335	thuốc lá
W03338	thuộc lòng
W03339B	thuỷ điện
W03339N	thuỷ điện
W03339T	thuỷ điện
W03341	thuỷ thủ
W03342	tinh trùng
W03344	thủy chung
W03345B	Thủy Điện Hòa Bình
W03345N	Thủy Điện Hòa Bình
W03345T	Thủy Điện Hòa Bình
W03347	thuyền chài
W03349	thuyền rồng
W03350	trưởng thành
W03351	thuyết phục
W03352	thuyết trình
W03354	thư giãn
W03355	mục đích
W03357	thứ tự
W03359B	thừa
W03359N	thừa
W03359T	thừa
W03361B	Thừa Thiên – Huế
W03361N	Thừa Thiên – Huế
W03361T	Thừa Thiên – Huế
W03364	thực hành
W03365	thực hiện
W03366	thực phẩm
W03367	thực sự
W03368	thực tế
W03369	thực vật
W03370	thương (số)
W03371	bùng binh
W03373B	thương yêu
W03373N	thương yêu
W03373T	thương yêu
W03377	tỉ lệ
W03379	tỉ mỉ
W03380	tỉ số
W03381	tỉ số phần trăm
W03383	tí hon
W03386	tia chớp
W03387	tia nắng
W03388	tia số
W03390	tích (số)
W03391	tích cực
W03392B	tiếc
W03392N	tiếc
W03392T	tiếc
W03393	tiệc
W03394	tiêm
W03398	Tiền Giang
W03405	tiến sĩ
W03407	tiện nghi
W03409B	tiếng Anh
W03409N	tiếng Anh
W03409T	tiếng Anh
W03414	tiếng nói
W03416	tiếp nhận
W03418	tiếp theo
W03419	tiếp thu
W03421B	tiếp tục
W03421N	tiếp tục
W03421T	tiếp tục
W03422B	tiết kiệm
W03422N	tiết kiệm
W03422T	tiết kiệm
W03424	tiêu cực
W03425	tiêu diệt
W03426	tiêu hoá
W03427	thụ phấn (hoa)
W03430	tiểu học
W03431	tim
W03433B	tìm hiểu
W03433N	tìm hiểu
W03433T	tìm hiểu
W03434	tím tái
W03435	tin cậy
W03436	tin học
W03437	tin nhắn
W03438	tin tức
W03445	thần kì
W03447	tình cảm
W03448	tình cờ
W03449	tình huống
W03450B	thương yêu
W03450N	thương yêu
W03450T	thương yêu
W03451	tình yêu
W03452	tĩnh lặng
W03454	tính cách
W03455	tính chất
W03456	tính chất bằng nhau
W03457	tính chất cơ bản của phân số
W03458	tính chất giao hoán
W03459	tính chất kết hợp
W03461	tính nhẩm
W03463	tính toán
W03464	tính từ
W03466	to lớn
W03467B	tò mò
W03467T	tò mò
W03469	toa lét
W03471B	toa xe
W03471N	toa xe
W03471T	toa xe
W03472B	toà án
W03472N	toà án
W03472T	toà án
W03473	tòa soạn
W03474	tỏa hương
W03476	toàn cầu
W03479	tóc xoăn
W03480	tóm cổ
W03481	tóm lược
W03482	tóm tắt
W03486B	tô màu
W03486N	tô màu
W03486T	tô màu
W03488	tổ chim
W03491	tôn trọng
W03492	tôn thờ
W03494	tổ tiên
W03495	tổ trưởng
W03501	tôn trọng
W03502	tổng (số)
W03503	tổng hợp
W03505B	tổng thống
W03505N	tổng thống
W03505T	tổng thống
W03507	tống tiền
W03508B	tờ báo
W03508N	tờ báo
W03508T	tờ báo
W03509B	tờ giấy
W03509N	tờ giấy
W03509T	tờ giấy
W03512	tờ tiền
W03513	Trà Vinh
W03514	trách mắng
W03517	trại giam
W03519	trang trí
W03524	trà
W03525	trả (đt)
W03526	trả lời
W03528	trách nhiệm
W03531N	trái nghĩa
W03531T	trái nghĩa
W03534	trạm xe buýt
W03535	trạm y tế
W03536	tràn ngập (nước)
W03537	trang phục
W03542	tranh luận
W03543	tai nạn giao thông
W03544	tránh thai
W03545	trao tặng
W03550B	trăng
W03550N	trăng
W03550T	trăng
W03552B	trắng muốt
W03552N	trắng muốt
W03552T	trắng muốt
W03553	trắng tay
W03554	trầm trồ
W03560	quạt trần
W03562	trần nhà
W03568	tự (tự làm)
W03571B	tre
W03571N	tre
W03571T	tre
W03573	trêu
W03575	trêu tức
W03576	trí khôn
W03578	trí thức
W03585	triều cường
W03587	triều đình
W03593	trình bày
W03594	trình độ
W03599	trò chơi
W03602B	trọc đầu
W03602N	trọc đầu
W03602T	trọc đầu
W03603	trói tay
W03605	tròn trịa (mặt)
W03606	trong sáng
W03607	tròn
W03611B	trong ngoài
W03611N	trong ngoài
W03611T	trong ngoài
W03612	trong suốt
W03614	trọng tài
W03615	xe tải
W03618	trộm cắp
W03619B	trốn chạy
W03619N	trốn chạy
W03619T	trốn chạy
W03620B	trông chờ
W03620N	trông chờ
W03620T	trông chờ
W03621	trông coi
W03622B	trông nom
W03622N	trông nom
W03622T	trông nom
W03624	trống
W03626	trộn (đt)
W03629	trở thành
W03632	trú mưa
W03633	trục hoành
W03634	trục tung
W03635	trục xuất
W03636B	trụi lá
W03636N	trụi lá
W03636T	trụi lá
W03637	trùm chăn
W03638	trung bình
W03641	trung điểm
W03642B	Trung Quốc (nước Trung Quốc)
W03642N	Trung Quốc (nước Trung Quốc)
W03642T	Trung Quốc (nước Trung Quốc)
W03643	trung tâm
W03644	trung thành
W03645B	Trung Thu
W03645N	Trung Thu
W03645T	Trung Thu
W03646	trung ương
W03648	trúng thưởng
W03649B	trúng tuyển
W03649N	trúng tuyển
W03649T	trúng tuyển
W03650	truyền dịch
W03653	truyền thông
W03654	truyền thống
W03657	trực nhật
W03659B	trứng
W03659N	trứng
W03659T	trứng
W03663N	trường tiểu học
W03663T	trường tiểu học
W03665	trực tiếp
W03666	trưng bày
W03669B	trước
W03669N	trước
W03669T	trước
W03672	trường hợp
W03673B	trường mầm non
W03673N	trường mầm non
W03673T	trường mầm non
W03674B	trường PTCS (cấp 2)
W03674N	trường PTCS (cấp 2)
W03674T	trường PTCS (cấp 2)
W03675B	trường THPT ( cấp 3)
W03675N	trường THPT ( cấp 3)
W03675T	trường THPT ( cấp 3)
W03676	trưởng nhóm
W03678	tù giam
W03682	tụ tập
W03683	tuân lệnh
W03684	tuân thủ
W03685B	tuần
W03685N	tuần
W03685T	tuần
W03689	tủi thân
W03692	túm tóc
W03696	tung tăng
W03698	tuổi thơ
W03699	tuốt lúa
W03700	tuỷ sống
W03701	tuyên bố
W03702	tuyên ngôn
W03708	tuyệt vọng
W03710	từ bỏ
W03711	từ đồng âm
W03712	từ ngữ
W03713	từ phải sang trái
W03714B	từ trái nghĩa
W03714N	từ trái nghĩa
W03714T	từ trái nghĩa
W03715	từ trái sang phải
W03717B	tự do
W03717N	tự do
W03717T	tự do
W03719B	tự lập
W03719N	tự lập
W03719T	tự lập
W03720B	tự tin
W03720N	tự tin
W03720T	tự tin
W03722B	tự vệ
W03722N	tự vệ
W03722T	tự vệ
W03725	tươi cười
W03727B	tưới cây
W03727N	tưới cây
W03727T	tưới cây
W03728	nước tương (xì dầu)
W03729	tương ứng
W03730	tưởng
W03732	tưởng tượng
W03732B	tưởng tượng
W03732N	tưởng tượng
W03732T	tưởng tượng
W03734	tượng
W03735	tượng đài
W03738	u ám ( trời u ám)
W03740	ung dung
W03741	ủng
W03742	ủng hộ
W03744	UNICEF
W03745	uốn
W03746	uốn cong
W03747	uốn dẻo
W03748	uốn tóc
W03749	úp
W03750	ủy ban
W037511	ủy ban nhân dân
W03751B	ủy quyền
W03751N	ủy quyền
W03751T	ủy quyền
W03752	ức chế
W03757	ưu điểm
W03758B	ưu tiên
W03758N	ưu tiên
W03758T	ưu tiên
W03759	va chạm
W03761	va li
W03762	vác
W03765	vạch trần
W03766	vạch xuất phát
W03767	vai
W03768	vai trò
W03770	vái lạy
W03771	vái tứ phương
W03773	vạm vỡ
W03777	vàng (kim loại)
W03778	vàng bạc
W03780	vào
W03781	vào lớp
W03782	vào mùa
W03782B	vào mùa
W03784	vá xe
W03785	vạt áo
W03786	văn
W03787	văn bản
W03791	Văn miếu Quốc Tử Giám
W03793B	văn nghệ
W03793N	văn nghệ
W03793T	văn nghệ
W03794	vắn tắt
W03795B	vắng
W03795N	vắng
W03795T	vắng
W03796	vắng lặng
W03797	vắt cam
W03799B	vấn đề
W03799N	vấn đề
W03799T	vấn đề
W03800	vận chuyển
W03801	vận động
W03804	vận tốc
W03805N	vầng trăng
W03805T	vầng trăng
W03806	vật
W03809B	vật nuôi
W03809N	vật nuôi
W03809T	vật nuôi
W03810	vây bắt
W03812	vẫy tay
W03813	vẫy vùng (cá)
W03814	vé
W03819	vệ sinh cá nhân
W03820	vênh váo
W03821	vết thương
W03823	vi khuẩn
W03825B	vì sao?
W03825N	vì sao?
W03825T	vì sao?
W03826	vĩ cầm
W03827	vĩ đại
W03828B	ví dụ
W03828N	ví dụ
W03828T	ví dụ
W03829	vị ngữ
W03832	vị trí
W03835	việc làm
W03840	viện bảo tàng
W03841	viện nghiên cứu
W03842	viết lia lịa
W03846	Vĩnh Long
W03847	Vĩnh Phúc
W03848	vịnh
W03849	vịnh Hạ Long
W03851	Võ Nguyên Giáp
W03852	vòi voi
W03853	vòng đeo tay
W03854	vòng quanh Trái Đất
W03855	vỏ
W03856	võ thuật
W03858	vòi nước
W03859	mái vòm
W03860	vòm lá
W03861	vòng cung
W03862	vòng đời
W03863	vòng tròn
W03864	võng (cái võng)
W03865	nhiều vô cùng
W03866	vô lí
W03867	vô lo vô nghĩ
W03868	vô tâm
W03869	xa vô tận
W03870	vô tư
W03871	vô ý
W03872	vô ý thức
W03873	vồ
W03875	vỗ cánh
W03876	vỗ tay
W03878	vội vã
W03881	vở chèo
W03882	vỡ
W03883	vỡ lòng
W03884	vớt
W03885	vũ công
W03886	vũ trụ
W03887	vua Hùng
W03888B	vui chơi
W03888N	vui chơi
W03888T	vui chơi
W03889B	vui mừng
W03889N	vui mừng
W03889T	vui mừng
W03890B	vui sướng
W03890N	vui sướng
W03890T	vui sướng
W03892	vui tính
W03894	vun đắp
W03903	vùng vẫy (dành cho người)
W03908	hình vuông
W03909	vuốt tóc
W03911	vuông góc
W03912	vững chắc
W03917	vườn thú
W03924	vượt trội
W03925	xa cách
W03928	xa xôi
W03930B	xà phòng
W03930N	xà phòng
W03930T	xà phòng
W03931B	xà phòng giặt
W03931N	xà phòng giặt
W03931T	xà phòng giặt
W03933	xả rác
W03935B	xã hội
W03935N	xã hội
W03935T	xã hội
W03936	xách túi
W03938B	xanh xao
W03938N	xanh xao
W03938T	xanh xao
W03939	xã
W03940	xác chết
W03941	xác định
W03943	xách nặng
W03945B	cây xanh tươi
W03945N	cây xanh tươi
W03945T	cây xanh tươi
W03947	xăm
W03948	xăng
W03949	xăng-ti-mét (cm)
W03950	xăng-ti-mét-khối (cm3)
W03951	xăng-ti-mét-vuông (cm2)
W03953	xâm lược
W03956B	xây
W03956N	xây
W03956T	xây
W03958	xây nhà
W03959	xe đạp
W03960	xe ben
W03961	xe máy
W03962B	xe cảnh sát
W03962N	xe cảnh sát
W03962T	xe cảnh sát
W03964B	xe cứu hỏa
W03964N	xe cứu hỏa
W03965	xe cứu thương
W03967B	xe khách
W03967N	xe khách
W03967T	xe khách
W03968	xe lam
W03969	xe lu
W03971	xe cẩu
W03973	xé rách
W03974	xem xét
W03975	xen
W03976	xẻng
W03978	xếp
W03979	xếp hàng
W03980	xếp hàng dọc
W03981	xếp hàng ngang
W03982	xếp hàng ưu tiên
W03983	xếp hình
W03986	xích đạo
W03990	xin lỗi
W03991	xinh
W03992	xinh xắn
W03993	xóa bảng
W03995	xoá bỏ
W03996	xoáy
W03999	xóm làng
W04000	xô
W04001	xôi
W04003	xông hơi
W04006	xu (tiền)
W04007	tóc dựng đứng
W04010B	xuất hiện
W04010N	xuất hiện
W04010T	xuất hiện
W04011	xuất khẩu
W04013	xúc xắc
W04014	xung đột
W04016	xung phong
W04017	xung quanh nhà
W04019	xuống
W04023	xứ Nghệ
W04025B	xưa
W04025N	xưa
W04025T	xưa
W04028	xương rồng
W04031	Y-Éc-Xanh
W04034	y tế
W04035	ý chí
W04038B	ý nghĩa
W04038N	ý nghĩa
W04038T	ý nghĩa
W04039	ý thức
W04040	ý tưởng
W04041	yếm
W04043	Yên Bái
W04044	yên bình
W04046	yên lòng
W04048	yên tâm
W04056B	tôi yêu bạn
W04056N	tôi yêu bạn
W04056T	tôi yêu bạn
W04057B	yêu cầu
W04057N	yêu cầu
W04057T	yêu cầu
W04058B	yêu mến (yêu quí)
W04058N	yêu mến (yêu quí)
W04058T	yêu mến (yêu quí)
W04059B	yếu
W04059N	yếu
W04059T	yếu
W04060	yếu tố
W04061	công văn
W04062	vá quần áo
W04063	hoan hô
W04065	trả thù
W04066B	môn Địa lý
W04066N	môn Địa lý
W04066T	môn Địa lý
W04068	con trai
W04069	đệm
W04070	gù lưng
W04071	ai bảo
W04072	hãng ô tô
W04073	ngôn ngữ kí hiệu